Wed Jun 16 20:55:22 2021       
+-----------------------------------------------------------------------------+
| NVIDIA-SMI 465.19.01    Driver Version: 465.19.01    CUDA Version: 11.3     |
|-------------------------------+----------------------+----------------------+
| GPU  Name        Persistence-M| Bus-Id        Disp.A | Volatile Uncorr. ECC |
| Fan  Temp  Perf  Pwr:Usage/Cap|         Memory-Usage | GPU-Util  Compute M. |
|                               |                      |               MIG M. |
|===============================+======================+======================|
|   0  NVIDIA Tesla V1...  On   | 00000000:58:00.0 Off |                    0 |
| N/A   25C    P0    24W / 250W |      0MiB / 32510MiB |      0%   E. Process |
|                               |                      |                  N/A |
+-------------------------------+----------------------+----------------------+
|   1  NVIDIA Tesla V1...  On   | 00000000:D8:00.0 Off |                    0 |
| N/A   25C    P0    23W / 250W |      0MiB / 32510MiB |      0%   E. Process |
|                               |                      |                  N/A |
+-------------------------------+----------------------+----------------------+
                                                                               
+-----------------------------------------------------------------------------+
| Processes:                                                                  |
|  GPU   GI   CI        PID   Type   Process name                  GPU Memory |
|        ID   ID                                                   Usage      |
|=============================================================================|
|  No running processes found                                                 |
+-----------------------------------------------------------------------------+
Results from the following experiment will be stored in exp/train_dprnntasnet_1
0
Stage 3 : Evaluation
Overall metrics :
{'pesq': 2.461805227718964,
 'pesq_imp': 0.6305702510995018,
 'sar': 10.82420132173111,
 'sar_imp': 9.293420569091834,
 'sdr': 9.586540861194651,
 'sdr_imp': 13.962141031576277,
 'si_sdr': 8.334103712009352,
 'si_sdr_imp': 12.801365791770538,
 'sir': 44.44324120113803,
 'sir_imp': 44.443241276285654,
 'stoi': 0.8865714679905077,
 'stoi_imp': 0.038698706785174404}

Don't forget to share your pretrained models at https://zenodo.org/communities/asteroid-models/! =)
You can directly use our CLI for that, run this: 
`asteroid-upload exp/train_dprnntasnet_1/publish_dir --uploader "Your name here"`

0.2
Stage 3 : Evaluation
Overall metrics :
{'pesq': 2.3312285986838934,
 'pesq_imp': 0.6371706896141579,
 'sar': 11.632666831338723,
 'sar_imp': 9.527201860267677,
 'sdr': 11.02166284251594,
 'sdr_imp': 15.04054558234964,
 'si_sdr': 10.022679444987709,
 'si_sdr_imp': 14.161576499573176,
 'sir': 28.56065252496182,
 'sir_imp': 28.526103941032552,
 'stoi': 0.8882218012076394,
 'stoi_imp': 0.08560845047878103}

Don't forget to share your pretrained models at https://zenodo.org/communities/asteroid-models/! =)
You can directly use our CLI for that, run this: 
`asteroid-upload exp/train_dprnntasnet_1/publish_dir --uploader "Your name here"`

0.4
Stage 3 : Evaluation
Overall metrics :
{'pesq': 2.1959786145905005,
 'pesq_imp': 0.6141826920584093,
 'sar': 11.295325414893798,
 'sar_imp': 8.67422834422593,
 'sdr': 10.765873075451308,
 'sdr_imp': 14.473878014910563,
 'si_sdr': 9.823329819083568,
 'si_sdr_imp': 13.685222232413404,
 'sir': 25.070746977021404,
 'sir_imp': 24.998316262605506,
 'stoi': 0.8754437606166487,
 'stoi_imp': 0.12361889418436064}

Don't forget to share your pretrained models at https://zenodo.org/communities/asteroid-models/! =)
You can directly use our CLI for that, run this: 
`asteroid-upload exp/train_dprnntasnet_1/publish_dir --uploader "Your name here"`

0.6
Stage 3 : Evaluation
Overall metrics :
{'pesq': 2.114820362747789,
 'pesq_imp': 0.5954606522513358,
 'sar': 11.02392170190619,
 'sar_imp': 8.022944483448242,
 'sdr': 10.482909716721908,
 'sdr_imp': 13.970994870057492,
 'si_sdr': 9.55956990199146,
 'si_sdr_imp': 13.225617457757924,
 'sir': 23.519686209173674,
 'sir_imp': 23.420278557495042,
 'stoi': 0.8662418435886902,
 'stoi_imp': 0.14675785568176153}

Don't forget to share your pretrained models at https://zenodo.org/communities/asteroid-models/! =)
You can directly use our CLI for that, run this: 
`asteroid-upload exp/train_dprnntasnet_1/publish_dir --uploader "Your name here"`

0.8
Stage 3 : Evaluation
Overall metrics :
{'pesq': 2.0751064345787333,
 'pesq_imp': 0.6016277863114098,
 'sar': 10.7836344136332,
 'sar_imp': 7.509883225245776,
 'sdr': 10.21738215823156,
 'sdr_imp': 13.541784483499995,
 'si_sdr': 9.310337612922655,
 'si_sdr_imp': 12.839201113541373,
 'sir': 22.363218636494913,
 'sir_imp': 22.232654066287566,
 'stoi': 0.8601415578623612,
 'stoi_imp': 0.16269114379391827}

Don't forget to share your pretrained models at https://zenodo.org/communities/asteroid-models/! =)
You can directly use our CLI for that, run this: 
`asteroid-upload exp/train_dprnntasnet_1/publish_dir --uploader "Your name here"`

1
Stage 3 : Evaluation
Overall metrics :
{'pesq': 2.0580265701334026,
 'pesq_imp': 0.6133170415354697,
 'sar': 10.531079486976788,
 'sar_imp': 7.053497844299707,
 'sdr': 9.921966514996052,
 'sdr_imp': 13.11247618857271,
 'si_sdr': 9.016168543926035,
 'si_sdr_imp': 12.444491493072142,
 'sir': 21.249345737040414,
 'sir_imp': 21.077323660372308,
 'stoi': 0.8567336389495236,
 'stoi_imp': 0.16999782559330434}

Don't forget to share your pretrained models at https://zenodo.org/communities/asteroid-models/! =)
You can directly use our CLI for that, run this: 
`asteroid-upload exp/train_dprnntasnet_1/publish_dir --uploader "Your name here"`

mix
Stage 3 : Evaluation
Overall metrics :
{'pesq': 2.20672040001185,
 'pesq_imp': 0.6149302529110141,
 'sar': 11.002092087746762,
 'sar_imp': 8.325493535509617,
 'sdr': 10.303517981966614,
 'sdr_imp': 13.978992158891128,
 'si_sdr': 9.310890404510317,
 'si_sdr_imp': 13.150563450279066,
 'sir': 27.52973755430188,
 'sir_imp': 27.44455590035191,
 'stoi': 0.8717446034317199,
 'stoi_imp': 0.12072883916579458}

Don't forget to share your pretrained models at https://zenodo.org/communities/asteroid-models/! =)
You can directly use our CLI for that, run this: 
`asteroid-upload exp/train_dprnntasnet_1/publish_dir --uploader "Your name here"`

All done
