{
"input_si_sdr": -4.214790344238281,
"input_sdr": -4.182673859854704,
"input_sir": 3.2868645194472634e-07,
"input_sar": 0.9556370626925231,
"input_stoi": 0.8678877224137256,
"input_pesq": 1.7644896507263184,
"si_sdr": 14.038227558135986,
"sdr": 14.535411684393626,
"sir": 63.598280369078694,
"sar": 14.535480307735673,
"stoi": 0.9131996972274588,
"pesq": 2.2374119758605957,
"mix_path": "/dtu-compute/LibriMix/rmth/Fagprojekt194240/our_output_test/sparse_2_0/wav8000/mix_noisy/mix_0002666.wav"
}