{
"input_si_sdr": -1.7873979806900024,
"input_sdr": -1.7190810424614948,
"input_sir": 0.028288892535815346,
"input_sar": 7.923774429597165,
"input_stoi": 0.6914446316667346,
"input_pesq": 1.3771395683288574,
"si_sdr": 6.534663200378418,
"sdr": 7.727603983933915,
"sir": 15.604881708021384,
"sar": 8.878243170148991,
"stoi": 0.7800455375377948,
"pesq": 1.62514728307724,
"mix_path": "/dtu-compute/LibriMix/rmth/Fagprojekt194240/our_output_test/sparse_2_0.6/wav8000/mix_noisy/mix_0002336.wav"
}