{
"input_si_sdr": -5.165561676025391,
"input_sdr": -5.118813405352813,
"input_sir": 1.921089861128128e-05,
"input_sar": -0.5110678991411792,
"input_stoi": 0.843974408271033,
"input_pesq": 1.862194001674652,
"si_sdr": 12.33814525604248,
"sdr": 14.11129127657626,
"sir": 34.338468456720605,
"sar": 14.372258061229,
"stoi": 0.9312410000620929,
"pesq": 2.5569798946380615,
"mix_path": "/dtu-compute/LibriMix/rmth/Fagprojekt194240/our_output_test/sparse_2_0/wav8000/mix_noisy/mix_0002605.wav"
}