{
"input_si_sdr": -2.52651584148407,
"input_sdr": -2.1797617418362303,
"input_sir": 0.2286228736082938,
"input_sar": 4.716273654152482,
"input_stoi": 0.7210561433627318,
"input_pesq": 1.3911681175231934,
"si_sdr": 7.316486120223999,
"sdr": 8.896880643670752,
"sir": 17.729874713890617,
"sar": 9.601001286234077,
"stoi": 0.8650930562711917,
"pesq": 1.8265730738639832,
"mix_path": "/dtu-compute/LibriMix/rmth/Fagprojekt194240/our_output_test/sparse_2_0.8/wav8000/mix_noisy/mix_0002247.wav"
}