{
"input_si_sdr": -5.1187474727630615,
"input_sdr": -4.996601529776378,
"input_sir": 0.04649822587899399,
"input_sar": -0.2297800356349389,
"input_stoi": 0.8779521952113736,
"input_pesq": 1.7113057971000671,
"si_sdr": 11.291139125823975,
"sdr": 12.071147409676396,
"sir": 26.431517848313508,
"sar": 12.407475632116228,
"stoi": 0.9499879369811666,
"pesq": 2.4448729753494263,
"mix_path": "/dtu-compute/LibriMix/rmth/Fagprojekt194240/our_output_test/sparse_2_0.2/wav8000/mix_noisy/mix_0001778.wav"
}