{
"input_si_sdr": -3.784447431564331,
"input_sdr": -3.6565654754988905,
"input_sir": 0.040971027512271774,
"input_sar": 1.7927577528957488,
"input_stoi": 0.7248305291381015,
"input_pesq": 1.834412157535553,
"si_sdr": 9.751116275787354,
"sdr": 10.655205171332897,
"sir": 19.369330367830813,
"sar": 11.644404980499118,
"stoi": 0.8477365427845465,
"pesq": 2.103737950325012,
"mix_path": "/dtu-compute/LibriMix/rmth/Fagprojekt194240/our_output_test/sparse_2_0.6/wav8000/mix_noisy/mix_0002354.wav"
}