{
"input_si_sdr": -6.057182550430298,
"input_sdr": -5.921860312115562,
"input_sir": -0.03693818993601851,
"input_sar": -1.5974789318242895,
"input_stoi": 0.7530218125899777,
"input_pesq": 1.4523961544036865,
"si_sdr": 1.1759763360023499,
"sdr": 1.5832723857895632,
"sir": 5.767179140307578,
"sar": 5.028991090786139,
"stoi": 0.7972067764179136,
"pesq": 1.544240951538086,
"mix_path": "/dtu-compute/LibriMix/rmth/Fagprojekt194240/our_output_test/sparse_2_0.8/wav8000/mix_noisy/mix_0000885.wav"
}