{
"input_si_sdr": -2.083151698112488,
"input_sdr": -2.031161703709112,
"input_sir": 0.011733632197818145,
"input_sar": 5.246906737471634,
"input_stoi": 0.6874871994861522,
"input_pesq": 1.3961598873138428,
"si_sdr": 9.883633613586426,
"sdr": 10.445440510201319,
"sir": 27.58735415129289,
"sar": 10.544754942967124,
"stoi": 0.864974028028513,
"pesq": 1.9163708686828613,
"mix_path": "/dtu-compute/LibriMix/rmth/Fagprojekt194240/our_output_test/sparse_2_0.8/wav8000/mix_noisy/mix_0000504.wav"
}