{
"/dtu-compute/LibriMix/rmth/Fagprojekt194240/ConvTasNet/exp/train_convtasnet_3eda2e19/checkpoints/epoch=103-step=35879.ckpt": -5.636443614959717,
"/dtu-compute/LibriMix/rmth/Fagprojekt194240/ConvTasNet/exp/train_convtasnet_3eda2e19/checkpoints/epoch=105-step=36569.ckpt": -5.364089488983154,
"/dtu-compute/LibriMix/rmth/Fagprojekt194240/ConvTasNet/exp/train_convtasnet_3eda2e19/checkpoints/epoch=110-step=38294.ckpt": -5.327173709869385,
"/dtu-compute/LibriMix/rmth/Fagprojekt194240/ConvTasNet/exp/train_convtasnet_3eda2e19/checkpoints/epoch=123-step=42779.ckpt": -5.738926410675049,
"/dtu-compute/LibriMix/rmth/Fagprojekt194240/ConvTasNet/exp/train_convtasnet_3eda2e19/checkpoints/epoch=128-step=44504.ckpt": -5.475821018218994
}