{
"input_si_sdr": -1.469907969236374,
"input_sdr": -1.3209856514644198,
"input_sir": 0.0863010822873782,
"input_sar": 7.542281832319588,
"input_stoi": 0.7049924980005084,
"input_pesq": 1.5677683353424072,
"si_sdr": 10.912919998168945,
"sdr": 11.562921909998085,
"sir": 20.458008664563256,
"sar": 12.216463719379606,
"stoi": 0.8768078649443278,
"pesq": 2.2744155526161194,
"mix_path": "/dtu-compute/LibriMix/rmth/Fagprojekt194240/our_output_test/SUM_2_mix/wav8000/mix_noisy/mix_0002123.wav"
}