{
"si_sdr": 7.620598705017705,
"si_sdr_imp": 11.286646260784167,
"sdr": 8.470255476958771,
"sdr_imp": 11.958340630294353,
"sir": 19.281729532015458,
"sir_imp": 19.182321880336826,
"sar": 9.356268106617842,
"sar_imp": 6.355290888159895,
"stoi": 0.8328634575061798,
"stoi_imp": 0.11337946959925115,
"pesq": 1.8968918442408031,
"pesq_imp": 0.37753213374434985
}