{
"input_si_sdr": -4.2532782554626465,
"input_sdr": -4.203961210785877,
"input_sir": 0.03187870244378621,
"input_sar": 0.8547802144641743,
"input_stoi": 0.8403501011022861,
"input_pesq": 1.6410791277885437,
"si_sdr": 10.181870460510254,
"sdr": 10.525817864527767,
"sir": 24.245449293644157,
"sar": 10.92291819045335,
"stoi": 0.8837037257025794,
"pesq": 2.314070224761963,
"mix_path": "/dtu-compute/LibriMix/rmth/Fagprojekt194240/our_output_test/sparse_2_0.2/wav8000/mix_noisy/mix_0002108.wav"
}