{
"input_si_sdr": -3.5764888525009155,
"input_sdr": -3.428165552991354,
"input_sir": 0.09802326446362752,
"input_sar": 2.216705290223614,
"input_stoi": 0.6943632553704624,
"input_pesq": 1.3802048563957214,
"si_sdr": 4.191649556159973,
"sdr": 4.86137938430419,
"sir": 10.988596360217011,
"sar": 6.635826630801495,
"stoi": 0.8027238632220712,
"pesq": 1.56617933511734,
"mix_path": "/dtu-compute/LibriMix/rmth/Fagprojekt194240/our_output_test/SUM_2_mix/wav8000/mix_noisy/mix_0001522.wav"
}