{
"input_si_sdr": -6.12828254699707,
"input_sdr": -6.0715998906866115,
"input_sir": -3.7037430813402494e-06,
"input_sar": -1.597594377327114,
"input_stoi": 0.7997261732676644,
"input_pesq": 1.772460699081421,
"si_sdr": 13.718886852264404,
"sdr": 14.101252516013174,
"sir": 44.5356951183857,
"sar": 14.123384181675465,
"stoi": 0.8854152764620148,
"pesq": 2.474577784538269,
"mix_path": "/dtu-compute/LibriMix/rmth/Fagprojekt194240/our_output_test/sparse_2_0/wav8000/mix_noisy/mix_0000960.wav"
}