{
"input_si_sdr": -4.545052528381348,
"input_sdr": -4.104433481297424,
"input_sir": 0.17542591390606926,
"input_sar": 0.8976680422994832,
"input_stoi": 0.6786281163336798,
"input_pesq": 1.4549042582511902,
"si_sdr": 12.748386859893799,
"sdr": 13.559313195879064,
"sir": 22.875913140095932,
"sar": 14.147340037999417,
"stoi": 0.9269589852117849,
"pesq": 2.4602428674697876,
"mix_path": "/dtu-compute/LibriMix/rmth/Fagprojekt194240/our_output_test/SUM_2_mix/wav8000/mix_noisy/mix_0002735.wav"
}