{
"input_si_sdr": -3.706635594367981,
"input_sdr": -3.664634417391423,
"input_sir": 2.6033691813420745e-08,
"input_sar": 1.8141588809176525,
"input_stoi": 0.8609764371378812,
"input_pesq": 2.0914827585220337,
"si_sdr": 16.808987617492676,
"sdr": 17.918765710740534,
"sir": 73.50302448284594,
"sar": 17.918783055664584,
"stoi": 0.9284427125413519,
"pesq": 3.0118428468704224,
"mix_path": "/dtu-compute/LibriMix/rmth/Fagprojekt194240/our_output_test/sparse_2_0/wav8000/mix_noisy/mix_0002271.wav"
}