{
"input_si_sdr": -2.750079572200775,
"input_sdr": -2.4652515556173467,
"input_sir": 0.2828278233619357,
"input_sar": 4.346489972108601,
"input_stoi": 0.8562320385641453,
"input_pesq": 1.6783472895622253,
"si_sdr": 13.98825216293335,
"sdr": 14.766137617564699,
"sir": 27.571976786491014,
"sar": 15.011782650773347,
"stoi": 0.9191870791525234,
"pesq": 2.2928712368011475,
"mix_path": "/dtu-compute/LibriMix/rmth/Fagprojekt194240/our_output_test/SUM_2_mix/wav8000/mix_noisy/mix_0000795.wav"
}