{
"input_si_sdr": -6.515066385269165,
"input_sdr": -6.419768737488944,
"input_sir": -0.015709197803187247,
"input_sar": -2.184825509113471,
"input_stoi": 0.7279871904230538,
"input_pesq": 1.6327877044677734,
"si_sdr": 9.189459800720215,
"sdr": 9.645944052817448,
"sir": 28.97451273011859,
"sar": 9.704215225134126,
"stoi": 0.8696394998976232,
"pesq": 2.1860010623931885,
"mix_path": "/dtu-compute/LibriMix/rmth/Fagprojekt194240/our_output_test/sparse_2_0.8/wav8000/mix_noisy/mix_0000062.wav"
}