{
"si_sdr": 8.186379200298408,
"si_sdr_imp": 11.852426756064869,
"sdr": 9.066072373496494,
"sdr_imp": 12.554157526832077,
"sir": 20.650004580874377,
"sir_imp": 20.55059692919575,
"sar": 9.849680191641244,
"sar_imp": 6.848702973183297,
"stoi": 0.8442157251975766,
"stoi_imp": 0.12473173729064795,
"pesq": 1.960964442551971,
"pesq_imp": 0.441604235495942
}