{
"input_si_sdr": -3.636423483490944,
"input_sdr": -3.520763845088212,
"input_sir": 0.10354991424516768,
"input_sar": 3.0791574952198175,
"input_stoi": 0.7791503447995931,
"input_pesq": 1.4620970487594604,
"si_sdr": 10.727101802825928,
"sdr": 11.248162744545805,
"sir": 24.581868547475807,
"sar": 11.492602493672061,
"stoi": 0.8731975307609752,
"pesq": 1.959086298942566,
"mix_path": "/dtu-compute/LibriMix/rmth/Fagprojekt194240/our_output_test/sparse_2_0.4/wav8000/mix_noisy/mix_0002624.wav"
}