{
"input_si_sdr": -5.902944803237915,
"input_sdr": -5.725430120216936,
"input_sir": 0.16239812390221964,
"input_sar": 3.456034278598405,
"input_stoi": 0.7588164199225569,
"input_pesq": 1.7961482405662537,
"si_sdr": 10.287489414215088,
"sdr": 11.758859445147765,
"sir": 28.52208604403754,
"sar": 11.882159275234132,
"stoi": 0.8972856215950686,
"pesq": 2.406592607498169,
"mix_path": "/dtu-compute/LibriMix/rmth/Fagprojekt194240/our_output_test/sparse_2_0.4/wav8000/mix_noisy/mix_0000971.wav"
}