{
"input_si_sdr": -5.279189109802246,
"input_sdr": -5.240613395070343,
"input_sir": -5.909241873602866e-09,
"input_sar": -0.6244277373029372,
"input_stoi": 0.8310273835436779,
"input_pesq": 1.570124328136444,
"si_sdr": 8.897214889526367,
"sdr": 9.277164107221067,
"sir": 43.05923157345615,
"sar": 9.280871029145654,
"stoi": 0.9039251361495615,
"pesq": 1.9776342511177063,
"mix_path": "/dtu-compute/LibriMix/rmth/Fagprojekt194240/our_output_test/sparse_2_0/wav8000/mix_noisy/mix_0001609.wav"
}