{
"si_sdr": 7.216435310682139,
"si_sdr_imp": 10.745298811300858,
"sdr": 8.059906039244483,
"sdr_imp": 11.384308364512918,
"sir": 18.03552631694775,
"sir_imp": 17.904961746740398,
"sar": 9.026506198336342,
"sar_imp": 5.752755009948919,
"stoi": 0.8214907203823665,
"stoi_imp": 0.12404030631392365,
"pesq": 1.846388880851827,
"pesq_imp": 0.37292582146559977
}