{
"input_si_sdr": -1.3486123085021973,
"input_sdr": -1.167675152564581,
"input_sir": 0.11182242522420194,
"input_sar": 8.015204761306915,
"input_stoi": 0.7881094516662078,
"input_pesq": 1.507421851158142,
"si_sdr": 11.394225597381592,
"sdr": 12.036418557096255,
"sir": 23.9098838145062,
"sar": 12.363741990964265,
"stoi": 0.91974884978606,
"pesq": 2.342413902282715,
"mix_path": "/dtu-compute/LibriMix/rmth/Fagprojekt194240/our_output_test/sparse_2_1/wav8000/mix_noisy/mix_0001635.wav"
}