{
"input_si_sdr": -6.186705112457275,
"input_sdr": -6.082085530259322,
"input_sir": -0.012078458911040299,
"input_sar": -1.8315724362746195,
"input_stoi": 0.7223277361360078,
"input_pesq": 1.3883565068244934,
"si_sdr": 6.868932008743286,
"sdr": 7.528417205466619,
"sir": 28.722401702455205,
"sar": 7.569533533972624,
"stoi": 0.8253896044125657,
"pesq": 1.6896281838417053,
"mix_path": "/dtu-compute/LibriMix/rmth/Fagprojekt194240/our_output_test/sparse_2_0.2/wav8000/mix_noisy/mix_0002554.wav"
}