{
"input_si_sdr": -6.066473007202148,
"input_sdr": -5.651589447112715,
"input_sir": 0.1345415317765748,
"input_sar": -0.9791083459727545,
"input_stoi": 0.6817386020668944,
"input_pesq": 1.4181062579154968,
"si_sdr": 7.0559515953063965,
"sdr": 8.122104376726021,
"sir": 18.39264099632063,
"sar": 8.626038273085385,
"stoi": 0.7808858349436272,
"pesq": 1.761765718460083,
"mix_path": "/dtu-compute/LibriMix/rmth/Fagprojekt194240/our_output_test/sparse_2_0.8/wav8000/mix_noisy/mix_0000215.wav"
}