{
"input_si_sdr": -6.17107629776001,
"input_sdr": -5.949392011214085,
"input_sir": 0.03760884993586916,
"input_sar": -1.6594254273294275,
"input_stoi": 0.8114148401995831,
"input_pesq": 1.6768105030059814,
"si_sdr": 10.017364501953125,
"sdr": 10.412570502824618,
"sir": 29.536661477603882,
"sar": 10.47701328229541,
"stoi": 0.8953757658064276,
"pesq": 1.965951383113861,
"mix_path": "/dtu-compute/LibriMix/rmth/Fagprojekt194240/our_output_test/SUM_2_mix/wav8000/mix_noisy/mix_0000794.wav"
}