{
"input_si_sdr": -3.8030431270599365,
"input_sdr": -3.566931002238878,
"input_sir": 0.2540841322836189,
"input_sar": 3.4800499113698766,
"input_stoi": 0.6222610942484499,
"input_pesq": 1.622065246105194,
"si_sdr": 7.709348440170288,
"sdr": 8.269136979035698,
"sir": 17.214511195105658,
"sar": 8.959110236959615,
"stoi": 0.8384203774636978,
"pesq": 2.100223183631897,
"mix_path": "/dtu-compute/LibriMix/rmth/Fagprojekt194240/our_output_test/sparse_2_1/wav8000/mix_noisy/mix_0000579.wav"
}