{
"input_si_sdr": -2.704238176345825,
"input_sdr": -2.620328076264054,
"input_sir": 0.0316327377574116,
"input_sar": 3.9508061907979695,
"input_stoi": 0.7439225264362085,
"input_pesq": 1.5674790143966675,
"si_sdr": 6.945675849914551,
"sdr": 7.508421263725934,
"sir": 15.085326705533548,
"sar": 8.684741155185788,
"stoi": 0.7947167333257698,
"pesq": 1.7543195486068726,
"mix_path": "/dtu-compute/LibriMix/rmth/Fagprojekt194240/our_output_test/sparse_2_1/wav8000/mix_noisy/mix_0002979.wav"
}