{
"input_si_sdr": -7.078278660774231,
"input_sdr": -6.932840796143056,
"input_sir": 0.07583590953272434,
"input_sar": -1.5418543434769374,
"input_stoi": 0.6331313810257417,
"input_pesq": 1.2570912837982178,
"si_sdr": 4.40230393409729,
"sdr": 5.549700004209287,
"sir": 23.672436566315753,
"sar": 5.638916109553234,
"stoi": 0.7261299415186526,
"pesq": 1.4850001335144043,
"mix_path": "/dtu-compute/LibriMix/rmth/Fagprojekt194240/our_output_test/sparse_2_0.4/wav8000/mix_noisy/mix_0001333.wav"
}