{
"/dtu-compute/LibriMix/rmth/Fagprojekt194240/ConvTasNet/exp/train_convtasnet_a30bc5fe/checkpoints/epoch=95-step=33215.ckpt": -5.10228967666626,
"/dtu-compute/LibriMix/rmth/Fagprojekt194240/ConvTasNet/exp/train_convtasnet_a30bc5fe/checkpoints/epoch=113-step=39443.ckpt": -5.195896625518799,
"/dtu-compute/LibriMix/rmth/Fagprojekt194240/ConvTasNet/exp/train_convtasnet_a30bc5fe/checkpoints/epoch=114-step=39789.ckpt": -5.055357933044434,
"/dtu-compute/LibriMix/rmth/Fagprojekt194240/ConvTasNet/exp/train_convtasnet_a30bc5fe/checkpoints/epoch=118-step=41173.ckpt": -5.235341548919678,
"/dtu-compute/LibriMix/rmth/Fagprojekt194240/ConvTasNet/exp/train_convtasnet_a30bc5fe/checkpoints/epoch=164-step=57089.ckpt": -5.068941116333008
}5
}