{
"input_si_sdr": -4.404862403869629,
"input_sdr": -4.258119765735,
"input_sir": 0.018715572299491355,
"input_sar": 0.77379232704267,
"input_stoi": 0.6804570100458527,
"input_pesq": 1.5295314192771912,
"si_sdr": 7.69476056098938,
"sdr": 8.594157931760469,
"sir": 21.03616268097292,
"sar": 8.88333973114272,
"stoi": 0.8051667469600445,
"pesq": 1.8297638893127441,
"mix_path": "/dtu-compute/LibriMix/rmth/Fagprojekt194240/our_output_test/sparse_2_0.6/wav8000/mix_noisy/mix_0000185.wav"
}