{
"input_si_sdr": -8.643465995788574,
"input_sdr": -7.820144733551228,
"input_sir": 0.32615715396003975,
"input_sar": -4.2259659166790575,
"input_stoi": 0.6930765683761722,
"input_pesq": 1.4794315099716187,
"si_sdr": 2.9097338914871216,
"sdr": 3.992948280755441,
"sir": 6.451262181370427,
"sar": 8.554548630615377,
"stoi": 0.7682065420634971,
"pesq": 1.6691697239875793,
"mix_path": "/dtu-compute/LibriMix/rmth/Fagprojekt194240/our_output_test/sparse_2_0.8/wav8000/mix_noisy/mix_0001682.wav"
}