{
"input_si_sdr": -3.0094777047634125,
"input_sdr": -2.9337275999362062,
"input_sir": 1.4695095451600082e-07,
"input_sar": 4.221635299959504,
"input_stoi": 0.8773933649084802,
"input_pesq": 2.0218085050582886,
"si_sdr": 13.47372817993164,
"sdr": 14.02708057109016,
"sir": 67.49781252139528,
"sar": 14.02710108555264,
"stoi": 0.9369188287440477,
"pesq": 2.60232150554657,
"mix_path": "/dtu-compute/LibriMix/rmth/Fagprojekt194240/our_output_test/sparse_2_0/wav8000/mix_noisy/mix_0001123.wav"
}