{
"input_si_sdr": -2.5393112003803253,
"input_sdr": -2.346469571178017,
"input_sir": 0.13688428266781072,
"input_sar": 4.559779413227059,
"input_stoi": 0.7006009665864393,
"input_pesq": 1.3735037446022034,
"si_sdr": -0.431338906288147,
"sdr": 0.5569353288755055,
"sir": 3.106785071266998,
"sar": 6.030650285153545,
"stoi": 0.6068594912846531,
"pesq": 1.2101749181747437,
"mix_path": "/dtu-compute/LibriMix/rmth/Fagprojekt194240/our_output_test/sparse_2_0.6/wav8000/mix_noisy/mix_0000658.wav"
}