{
"input_si_sdr": -1.5632486939430237,
"input_sdr": -1.524155729143164,
"input_sir": 0.07342862141377472,
"input_sar": 6.567449114848348,
"input_stoi": 0.8221802090999257,
"input_pesq": 1.6755321025848389,
"si_sdr": 1.0223504900932312,
"sdr": 1.6427628984905143,
"sir": 11.910741003017293,
"sar": 3.661713042642805,
"stoi": 0.7186248464433644,
"pesq": 1.5241303443908691,
"mix_path": "/dtu-compute/LibriMix/rmth/Fagprojekt194240/our_output_test/sparse_2_0.4/wav8000/mix_noisy/mix_0002072.wav"
}