{
"input_si_sdr": -5.437482595443726,
"input_sdr": -5.041737550988242,
"input_sir": 0.295865779337323,
"input_sar": -0.6195970981150545,
"input_stoi": 0.7009389541484518,
"input_pesq": 1.273120403289795,
"si_sdr": 3.1207045316696167,
"sdr": 5.92912702946429,
"sir": 13.52760060092185,
"sar": 7.904159700348241,
"stoi": 0.7168125066753586,
"pesq": 1.4115442037582397,
"mix_path": "/dtu-compute/LibriMix/rmth/Fagprojekt194240/our_output_test/sparse_2_0.6/wav8000/mix_noisy/mix_0002976.wav"
}