{
"si_sdr": 0.8032105351003392,
"si_sdr_imp": 4.642883580869087,
"sdr": 1.97041531079235,
"sdr_imp": 5.645889487716865,
"sir": 20.98938066708793,
"sir_imp": 20.90419901313796,
"sar": 4.561687473819867,
"sar_imp": 1.8850889215827202,
"stoi": 0.7183019257761709,
"stoi_imp": -0.032713838489754433,
"pesq": 1.6921338107319936,
"pesq_imp": 0.10036386618155516
}