{
"si_sdr": 7.47606454161548,
"si_sdr_imp": 11.315737587384227,
"sdr": 8.321809659810626,
"sdr_imp": 11.99728383673514,
"sir": 22.026108303129032,
"sir_imp": 21.94092664917906,
"sar": 9.372751926926563,
"sar_imp": 6.696153374689417,
"stoi": 0.8353664578707974,
"stoi_imp": 0.08435069360487198,
"pesq": 1.950286132837823,
"pesq_imp": 0.35849244819932885
}