{
"input_si_sdr": -5.7931294441223145,
"input_sdr": -5.433850029942496,
"input_sir": 0.0956299707832482,
"input_sar": -0.9594375156409776,
"input_stoi": 0.6828754842004222,
"input_pesq": 1.4096709489822388,
"si_sdr": -7.368533730506897,
"sdr": -6.312874337186683,
"sir": 2.1406683618261724,
"sar": -1.4650752601136476,
"stoi": 0.5794618941065466,
"pesq": 1.2368634343147278,
"mix_path": "/dtu-compute/LibriMix/rmth/Fagprojekt194240/our_output_test/SUM_2_mix/wav8000/mix_noisy/mix_0002170.wav"
}