{
"input_si_sdr": -3.4967217445373535,
"input_sdr": -3.266556288195573,
"input_sir": 0.0436853447129093,
"input_sar": 3.120575908060443,
"input_stoi": 0.8645266110060229,
"input_pesq": 1.7918505668640137,
"si_sdr": -1.1781175136566162,
"sdr": 0.20927656638696845,
"sir": 5.306734802319834,
"sar": 5.756145454839376,
"stoi": 0.7862581468534935,
"pesq": 1.5956907868385315,
"mix_path": "/dtu-compute/LibriMix/rmth/Fagprojekt194240/our_output_test/sparse_2_0.2/wav8000/mix_noisy/mix_0001525.wav"
}