{
"input_si_sdr": -5.2779998779296875,
"input_sdr": -5.00210915778055,
"input_sir": 0.0422489009584015,
"input_sar": 0.6248209662014547,
"input_stoi": 0.7233642392820956,
"input_pesq": 1.8349100351333618,
"si_sdr": 6.990203619003296,
"sdr": 7.747136368357937,
"sir": 16.447368615287214,
"sar": 8.534509713396353,
"stoi": 0.8727351638881833,
"pesq": 2.0946369767189026,
"mix_path": "/dtu-compute/LibriMix/rmth/Fagprojekt194240/our_output_test/sparse_2_0.6/wav8000/mix_noisy/mix_0000715.wav"
}