{
"input_si_sdr": -4.423031806945801,
"input_sdr": -3.904451366518134,
"input_sir": 0.3900569046748137,
"input_sar": 1.301557612517275,
"input_stoi": 0.7616115871705682,
"input_pesq": 1.6039738655090332,
"si_sdr": 9.24281644821167,
"sdr": 9.981447322973882,
"sir": 18.446802478067887,
"sar": 10.723822015969155,
"stoi": 0.9142492882523177,
"pesq": 2.203799605369568,
"mix_path": "/dtu-compute/LibriMix/rmth/Fagprojekt194240/our_output_test/SUM_2_mix/wav8000/mix_noisy/mix_0002504.wav"
}