{
"input_si_sdr": -3.1116186380386353,
"input_sdr": -2.9547781764103567,
"input_sir": 0.31848957444005865,
"input_sar": 2.8017339624993016,
"input_stoi": 0.7110561503069535,
"input_pesq": 1.5572690963745117,
"si_sdr": 7.665496826171875,
"sdr": 8.055127515103976,
"sir": 20.194066063765945,
"sar": 8.466625360591802,
"stoi": 0.8695826299363153,
"pesq": 2.027918040752411,
"mix_path": "/dtu-compute/LibriMix/rmth/Fagprojekt194240/our_output_test/sparse_2_0.6/wav8000/mix_noisy/mix_0002457.wav"
}