{
"input_si_sdr": -2.6412373781204224,
"input_sdr": -2.584670842886939,
"input_sir": 0.01479583426607034,
"input_sar": 3.9621776836688753,
"input_stoi": 0.7290954512846848,
"input_pesq": 1.6329867243766785,
"si_sdr": 10.22689962387085,
"sdr": 10.706223904428985,
"sir": 23.499535633268984,
"sar": 10.96479230878925,
"stoi": 0.8529173776182036,
"pesq": 2.1448811292648315,
"mix_path": "/dtu-compute/LibriMix/rmth/Fagprojekt194240/our_output_test/sparse_2_0.6/wav8000/mix_noisy/mix_0001316.wav"
}