{
"input_si_sdr": -1.179643154144287,
"input_sdr": -1.0273389485375182,
"input_sir": 0.033421386678846754,
"input_sar": 8.6369858968785,
"input_stoi": 0.8115625746951021,
"input_pesq": 1.8456016778945923,
"si_sdr": 12.81071424484253,
"sdr": 13.626141850910175,
"sir": 25.118662453605378,
"sar": 13.961250171037321,
"stoi": 0.9197221410917664,
"pesq": 2.2229026556015015,
"mix_path": "/dtu-compute/LibriMix/rmth/Fagprojekt194240/our_output_test/sparse_2_0.4/wav8000/mix_noisy/mix_0002486.wav"
}