{
"input_si_sdr": -1.0721063017845154,
"input_sdr": -1.0073581642504004,
"input_sir": 0.08927615224870356,
"input_sar": 8.807521171363483,
"input_stoi": 0.6326864204988611,
"input_pesq": 1.494579255580902,
"si_sdr": 8.40917158126831,
"sdr": 9.252518854642236,
"sir": 17.862291404388777,
"sar": 10.122026653989948,
"stoi": 0.7799197763679203,
"pesq": 2.0698405504226685,
"mix_path": "/dtu-compute/LibriMix/rmth/Fagprojekt194240/our_output_test/SUM_2_mix/wav8000/mix_noisy/mix_0002847.wav"
}