{
"input_si_sdr": -3.659725248813629,
"input_sdr": -3.5906364022307673,
"input_sir": 0.09380938362893021,
"input_sar": 2.606767924765911,
"input_stoi": 0.7098894673021514,
"input_pesq": 1.5958473682403564,
"si_sdr": 10.630706787109375,
"sdr": 12.035516794655962,
"sir": 29.041290463023962,
"sar": 12.13300502497092,
"stoi": 0.871105057752683,
"pesq": 2.318397104740143,
"mix_path": "/dtu-compute/LibriMix/rmth/Fagprojekt194240/our_output_test/sparse_2_0.6/wav8000/mix_noisy/mix_0002495.wav"
}