{
"input_si_sdr": -6.1725709438323975,
"input_sdr": -6.0314176233901895,
"input_sir": 0.011662699594017667,
"input_sar": -1.0489163436121354,
"input_stoi": 0.7088753456009336,
"input_pesq": 1.4331668019294739,
"si_sdr": 9.34521484375,
"sdr": 10.518689800634771,
"sir": 31.14403519980229,
"sar": 10.561834649088329,
"stoi": 0.8487349472389452,
"pesq": 2.0038344860076904,
"mix_path": "/dtu-compute/LibriMix/rmth/Fagprojekt194240/our_output_test/sparse_2_0.2/wav8000/mix_noisy/mix_0001943.wav"
}