{
"input_si_sdr": -2.786354422569275,
"input_sdr": -2.7433131053685473,
"input_sir": -0.00883086409242509,
"input_sar": 3.5860972065058916,
"input_stoi": 0.8140168619184678,
"input_pesq": 1.5044932961463928,
"si_sdr": 8.905284404754639,
"sdr": 10.744661771643173,
"sir": 30.310355767475627,
"sar": 10.797827951793794,
"stoi": 0.8932253129620928,
"pesq": 2.137130379676819,
"mix_path": "/dtu-compute/LibriMix/rmth/Fagprojekt194240/our_output_test/sparse_2_0.2/wav8000/mix_noisy/mix_0001101.wav"
}