{
"input_si_sdr": -1.2250363305211067,
"input_sdr": -1.218414657778478,
"input_sir": 1.0966773500431515e-07,
"input_sar": 7.9700180780024565,
"input_stoi": 0.9384269611365126,
"input_pesq": 2.284782648086548,
"si_sdr": 15.853667736053467,
"sdr": 16.14987343212303,
"sir": 57.47114217207032,
"sar": 16.235983454798205,
"stoi": 0.969037751238517,
"pesq": 3.3644596338272095,
"mix_path": "/dtu-compute/LibriMix/rmth/Fagprojekt194240/our_output_test/sparse_2_0/wav8000/mix_noisy/mix_0001369.wav"
}