{
"input_si_sdr": -3.695261061191559,
"input_sdr": -3.5392105865238355,
"input_sir": 0.0466241480904912,
"input_sar": 2.458526299176201,
"input_stoi": 0.684235565477054,
"input_pesq": 1.5148242712020874,
"si_sdr": 10.211178302764893,
"sdr": 11.22993883241281,
"sir": 22.588507238143436,
"sar": 11.588239583555602,
"stoi": 0.8731013021613606,
"pesq": 2.0707945823669434,
"mix_path": "/dtu-compute/LibriMix/rmth/Fagprojekt194240/our_output_test/sparse_2_0.6/wav8000/mix_noisy/mix_0001154.wav"
}