{
"si_sdr": 7.112114412868229,
"si_sdr_imp": 11.579376492629416,
"sdr": 8.19625551101188,
"sdr_imp": 12.571855681393508,
"sir": 34.187890412911,
"sir_imp": 34.18789048805863,
"sar": 9.864776214367756,
"sar_imp": 8.33399546172848,
"stoi": 0.8644112657327024,
"stoi_imp": 0.01653850452736897,
"pesq": 2.2866595342327867,
"pesq_imp": 0.4551211645040137
}