{
"input_si_sdr": -3.6857335567474365,
"input_sdr": -3.6004179329840365,
"input_sir": 0.026391662828757267,
"input_sar": 2.1017686703798346,
"input_stoi": 0.8146207546337334,
"input_pesq": 1.6531965136528015,
"si_sdr": 10.253814697265625,
"sdr": 11.415824783789994,
"sir": 23.646735614513087,
"sar": 11.714314589658173,
"stoi": 0.9229414506953337,
"pesq": 2.258536458015442,
"mix_path": "/dtu-compute/LibriMix/rmth/Fagprojekt194240/our_output_test/sparse_2_0.2/wav8000/mix_noisy/mix_0001712.wav"
}