{
"input_si_sdr": -1.7724763751029968,
"input_sdr": -1.7370257419524826,
"input_sir": 0.029469788029496513,
"input_sar": 6.8789714250268394,
"input_stoi": 0.8562978347036877,
"input_pesq": 1.8046479225158691,
"si_sdr": 12.000506401062012,
"sdr": 12.377503545245638,
"sir": 30.848839676596096,
"sar": 12.445339242422818,
"stoi": 0.9204732594132701,
"pesq": 2.0056562423706055,
"mix_path": "/dtu-compute/LibriMix/rmth/Fagprojekt194240/our_output_test/sparse_2_0.2/wav8000/mix_noisy/mix_0002051.wav"
}