{
"input_si_sdr": -3.883256673812866,
"input_sdr": -3.7872896675038192,
"input_sir": -1.3540306875725605e-08,
"input_sar": 1.8145284137078757,
"input_stoi": 0.8296903939168307,
"input_pesq": 1.521645188331604,
"si_sdr": 11.06968069076538,
"sdr": 11.65259285930846,
"sir": 49.701787993990806,
"sar": 11.653462074583143,
"stoi": 0.9124576611401836,
"pesq": 1.9645162224769592,
"mix_path": "/dtu-compute/LibriMix/rmth/Fagprojekt194240/our_output_test/sparse_2_0/wav8000/mix_noisy/mix_0002528.wav"
}