{
"input_si_sdr": -3.9382983446121216,
"input_sdr": -3.861323466898658,
"input_sir": 0.014277538957743974,
"input_sar": 1.449011478774487,
"input_stoi": 0.7273164357765305,
"input_pesq": 1.4565730094909668,
"si_sdr": 9.665178775787354,
"sdr": 10.287050509186596,
"sir": 31.31228840566386,
"sar": 10.327184190817295,
"stoi": 0.8498673200907835,
"pesq": 1.9173094630241394,
"mix_path": "/dtu-compute/LibriMix/rmth/Fagprojekt194240/our_output_test/sparse_2_0.2/wav8000/mix_noisy/mix_0002169.wav"
}