{
"input_si_sdr": -3.588618755340576,
"input_sdr": -3.434425456572304,
"input_sir": 0.025354695456229925,
"input_sar": 2.275424642358325,
"input_stoi": 0.6174153700581891,
"input_pesq": 1.3967655897140503,
"si_sdr": 7.321298837661743,
"sdr": 8.25311739414018,
"sir": 20.22468973814487,
"sar": 8.709694524978843,
"stoi": 0.7677051701597646,
"pesq": 1.8572863340377808,
"mix_path": "/dtu-compute/LibriMix/rmth/Fagprojekt194240/our_output_test/sparse_2_0.6/wav8000/mix_noisy/mix_0002765.wav"
}