{
"input_si_sdr": -2.183027446269989,
"input_sdr": -2.1409098438326604,
"input_sir": 3.0194778216641183e-06,
"input_sar": 5.032356507220095,
"input_stoi": 0.8537828244864917,
"input_pesq": 1.7282962203025818,
"si_sdr": 10.911794662475586,
"sdr": 11.893750459615159,
"sir": 65.20680216541444,
"sar": 11.893794491508435,
"stoi": 0.9095640692940713,
"pesq": 2.2435739040374756,
"mix_path": "/dtu-compute/LibriMix/rmth/Fagprojekt194240/our_output_test/sparse_2_0/wav8000/mix_noisy/mix_0002909.wav"
}