{
"input_si_sdr": -1.5643223226070404,
"input_sdr": -1.500692411415275,
"input_sir": -0.014634878498272386,
"input_sar": 7.178538468486112,
"input_stoi": 0.8212641318167118,
"input_pesq": 1.608296811580658,
"si_sdr": 13.93713665008545,
"sdr": 14.526570574689224,
"sir": 27.757261752883537,
"sar": 14.751850259822382,
"stoi": 0.9522789746232765,
"pesq": 2.453738570213318,
"mix_path": "/dtu-compute/LibriMix/rmth/Fagprojekt194240/our_output_test/sparse_2_0.6/wav8000/mix_noisy/mix_0001042.wav"
}