{
"input_si_sdr": -5.870670318603516,
"input_sdr": -5.789061239302954,
"input_sir": -6.933682672238817e-06,
"input_sar": -1.2349058364560919,
"input_stoi": 0.7615156392625784,
"input_pesq": 1.474967122077942,
"si_sdr": 8.21181344985962,
"sdr": 9.648299825480342,
"sir": 57.70816943540791,
"sar": 9.64846653016009,
"stoi": 0.8506755697553496,
"pesq": 2.198387622833252,
"mix_path": "/dtu-compute/LibriMix/rmth/Fagprojekt194240/our_output_test/sparse_2_0/wav8000/mix_noisy/mix_0001133.wav"
}