{
"input_si_sdr": -4.053920269012451,
"input_sdr": -3.9861749117282743,
"input_sir": 0.04320723184112163,
"input_sar": 1.3057022387080113,
"input_stoi": 0.7064084844102201,
"input_pesq": 1.3967759013175964,
"si_sdr": 8.789925336837769,
"sdr": 9.291574840715032,
"sir": 24.00441321067524,
"sar": 9.468016641847814,
"stoi": 0.8763437116852079,
"pesq": 1.9026414155960083,
"mix_path": "/dtu-compute/LibriMix/rmth/Fagprojekt194240/our_output_test/sparse_2_0.8/wav8000/mix_noisy/mix_0001229.wav"
}