{
"input_si_sdr": -1.128311961889267,
"input_sdr": -1.08268089124907,
"input_sir": 0.11444878093155378,
"input_sar": 8.0642598191874,
"input_stoi": 0.6828342509668632,
"input_pesq": 1.331053912639618,
"si_sdr": 9.37727975845337,
"sdr": 10.054272995342554,
"sir": 22.22614227253961,
"sar": 10.352988825300983,
"stoi": 0.8718866837535137,
"pesq": 2.005036950111389,
"mix_path": "/dtu-compute/LibriMix/rmth/Fagprojekt194240/our_output_test/sparse_2_1/wav8000/mix_noisy/mix_0000462.wav"
}