{
"input_si_sdr": -1.6651968955993652,
"input_sdr": -1.0995794931631968,
"input_sir": 0.6544137288459408,
"input_sar": 7.260283391286889,
"input_stoi": 0.7905725466667404,
"input_pesq": 1.4714771509170532,
"si_sdr": 11.312203407287598,
"sdr": 12.214898730840982,
"sir": 22.284611261691666,
"sar": 12.691465335076003,
"stoi": 0.9308152681694868,
"pesq": 2.0677733421325684,
"mix_path": "/dtu-compute/LibriMix/rmth/Fagprojekt194240/our_output_test/sparse_2_0.4/wav8000/mix_noisy/mix_0000996.wav"
}