{
"input_si_sdr": -2.4498602747917175,
"input_sdr": -2.325001357537361,
"input_sir": 0.13425028188898303,
"input_sar": 4.332111987582245,
"input_stoi": 0.7133667767989375,
"input_pesq": 1.4447275400161743,
"si_sdr": 8.20571756362915,
"sdr": 9.117371936001913,
"sir": 20.1267798539113,
"sar": 9.587457021412604,
"stoi": 0.8452890669686395,
"pesq": 1.8890135288238525,
"mix_path": "/dtu-compute/LibriMix/rmth/Fagprojekt194240/our_output_test/SUM_2_mix/wav8000/mix_noisy/mix_0001735.wav"
}