{
"/dtu-compute/LibriMix/rmth/Fagprojekt194240/ConvTasNet/exp/train_convtasnet_52695a71/checkpoints/epoch=108-step=37713.ckpt": -2.733701705932617,
"/dtu-compute/LibriMix/rmth/Fagprojekt194240/ConvTasNet/exp/train_convtasnet_52695a71/checkpoints/epoch=110-step=38405.ckpt": -2.739931106567383,
"/dtu-compute/LibriMix/rmth/Fagprojekt194240/ConvTasNet/exp/train_convtasnet_52695a71/checkpoints/epoch=123-step=42903.ckpt": -2.7632946968078613,
"/dtu-compute/LibriMix/rmth/Fagprojekt194240/ConvTasNet/exp/train_convtasnet_52695a71/checkpoints/epoch=134-step=46709.ckpt": -2.7760136127471924,
"/dtu-compute/LibriMix/rmth/Fagprojekt194240/ConvTasNet/exp/train_convtasnet_52695a71/checkpoints/epoch=145-step=50515.ckpt": -2.8298707008361816
}