{
"input_si_sdr": -1.8441438674926758,
"input_sdr": -1.5717664222025691,
"input_sir": 0.0780659510927133,
"input_sar": 6.877475352207054,
"input_stoi": 0.8102519208173253,
"input_pesq": 1.4595845341682434,
"si_sdr": 9.69396424293518,
"sdr": 10.548000121776338,
"sir": 18.518991663714402,
"sar": 11.424517450061842,
"stoi": 0.9181476520332809,
"pesq": 2.066277265548706,
"mix_path": "/dtu-compute/LibriMix/rmth/Fagprojekt194240/our_output_test/SUM_2_mix/wav8000/mix_noisy/mix_0002578.wav"
}