{
"input_si_sdr": -5.219790458679199,
"input_sdr": -5.163196551834052,
"input_sir": -0.017927577189056798,
"input_sar": -0.4846528912753357,
"input_stoi": 0.7366402300623962,
"input_pesq": 1.631019115447998,
"si_sdr": 4.538716912269592,
"sdr": 4.840893249295499,
"sir": 14.567946859124355,
"sar": 5.481389506624731,
"stoi": 0.7688041319684864,
"pesq": 1.6012413501739502,
"mix_path": "/dtu-compute/LibriMix/rmth/Fagprojekt194240/our_output_test/sparse_2_0.4/wav8000/mix_noisy/mix_0001731.wav"
}