{
"input_si_sdr": -5.087651491165161,
"input_sdr": -5.014081454017317,
"input_sir": 0.05501121274459875,
"input_sar": -0.4072202826144323,
"input_stoi": 0.7618670347718914,
"input_pesq": 1.483790636062622,
"si_sdr": 9.95449686050415,
"sdr": 11.03042405532717,
"sir": 24.042214664558436,
"sar": 11.276325689359691,
"stoi": 0.8511273694337285,
"pesq": 1.995201826095581,
"mix_path": "/dtu-compute/LibriMix/rmth/Fagprojekt194240/our_output_test/sparse_2_0.2/wav8000/mix_noisy/mix_0002143.wav"
}