{
"input_si_sdr": -3.495548188686371,
"input_sdr": -3.215350297832379,
"input_sir": 0.22160503667259668,
"input_sar": 2.508519840318646,
"input_stoi": 0.7222868609389945,
"input_pesq": 1.43009614944458,
"si_sdr": 9.03421688079834,
"sdr": 9.894121452835243,
"sir": 17.289558434230003,
"sar": 10.858193790134035,
"stoi": 0.8504540957073986,
"pesq": 1.9295141696929932,
"mix_path": "/dtu-compute/LibriMix/rmth/Fagprojekt194240/our_output_test/SUM_2_mix/wav8000/mix_noisy/mix_0002546.wav"
}