{
"input_si_sdr": -4.980098724365234,
"input_sdr": -4.823325107709122,
"input_sir": 0.17504633517621038,
"input_sar": -0.24330616085709977,
"input_stoi": 0.7546861426409213,
"input_pesq": 1.3844260573387146,
"si_sdr": 7.139167785644531,
"sdr": 8.259619360635742,
"sir": 19.675377540965435,
"sar": 8.63599107543727,
"stoi": 0.8337440597602728,
"pesq": 1.831557810306549,
"mix_path": "/dtu-compute/LibriMix/rmth/Fagprojekt194240/our_output_test/sparse_2_0.6/wav8000/mix_noisy/mix_0002417.wav"
}