{
"input_si_sdr": -5.698284864425659,
"input_sdr": -5.503137591695376,
"input_sir": 0.01813890156415887,
"input_sar": -0.6494873561862115,
"input_stoi": 0.7885268694763035,
"input_pesq": 1.4905251860618591,
"si_sdr": 12.783820629119873,
"sdr": 13.354018272037841,
"sir": 33.646234853394795,
"sar": 13.397717819652021,
"stoi": 0.9008111953182413,
"pesq": 2.426875114440918,
"mix_path": "/dtu-compute/LibriMix/rmth/Fagprojekt194240/our_output_test/sparse_2_0.2/wav8000/mix_noisy/mix_0001393.wav"
}