{
"input_si_sdr": -3.1108621656894684,
"input_sdr": -3.046269317859225,
"input_sir": -0.0012517024492004758,
"input_sar": 3.954182568931185,
"input_stoi": 0.8087965764498422,
"input_pesq": 1.7566291689872742,
"si_sdr": 14.294857025146484,
"sdr": 14.844945297792275,
"sir": 33.265109227567855,
"sar": 15.031031562754297,
"stoi": 0.8814206156007911,
"pesq": 1.8544777035713196,
"mix_path": "/dtu-compute/LibriMix/rmth/Fagprojekt194240/our_output_test/sparse_2_0.2/wav8000/mix_noisy/mix_0001589.wav"
}