{
"input_si_sdr": -1.9897847175598145,
"input_sdr": -1.8820447863540741,
"input_sir": 0.17674678114947806,
"input_sar": 6.346041527354438,
"input_stoi": 0.6979047305561434,
"input_pesq": 1.5381333231925964,
"si_sdr": -4.184361457824707,
"sdr": -3.372762153897795,
"sir": 1.1010960117807267,
"sar": 2.470718217058277,
"stoi": 0.6362875805526429,
"pesq": 1.4413782358169556,
"mix_path": "/dtu-compute/LibriMix/rmth/Fagprojekt194240/our_output_test/sparse_2_0.6/wav8000/mix_noisy/mix_0002872.wav"
}