{
"input_si_sdr": -2.849670946598053,
"input_sdr": -2.8235987320583664,
"input_sir": -3.3719004737253755e-06,
"input_sar": 3.6182033413212142,
"input_stoi": 0.8957015535503898,
"input_pesq": 2.0410082936286926,
"si_sdr": 12.802071571350098,
"sdr": 13.20361171242976,
"sir": 40.95493779926619,
"sar": 13.27051270407684,
"stoi": 0.9569610891471143,
"pesq": 2.7854437828063965,
"mix_path": "/dtu-compute/LibriMix/rmth/Fagprojekt194240/our_output_test/sparse_2_0/wav8000/mix_noisy/mix_0002652.wav"
}