{
"input_si_sdr": -6.7318456172943115,
"input_sdr": -6.480359491132659,
"input_sir": -0.009871111874071081,
"input_sar": -1.8507469883447452,
"input_stoi": 0.6588827571211413,
"input_pesq": 1.4189602732658386,
"si_sdr": 3.4489799588918686,
"sdr": 4.509795909670517,
"sir": 13.930668006041271,
"sar": 5.255354000571183,
"stoi": 0.739274481961415,
"pesq": 1.5237640738487244,
"mix_path": "/dtu-compute/LibriMix/rmth/Fagprojekt194240/our_output_test/sparse_2_1/wav8000/mix_noisy/mix_0001872.wav"
}