{
"input_si_sdr": -5.127790212631226,
"input_sdr": -4.977764142768793,
"input_sir": 0.09767158450488655,
"input_sar": -0.11566613335563343,
"input_stoi": 0.7151484332173252,
"input_pesq": 1.4442660212516785,
"si_sdr": 2.4843544140458107,
"sdr": 3.854440482717143,
"sir": 16.890476690596657,
"sar": 4.850192980030757,
"stoi": 0.6546624302983383,
"pesq": 1.5060760974884033,
"mix_path": "/dtu-compute/LibriMix/rmth/Fagprojekt194240/our_output_test/sparse_2_0.4/wav8000/mix_noisy/mix_0000502.wav"
}