{
"input_si_sdr": -3.7016797065734863,
"input_sdr": -3.65326664658608,
"input_sir": 0.007295171481957352,
"input_sar": 1.9695592123499717,
"input_stoi": 0.7649199600220538,
"input_pesq": 1.603841483592987,
"si_sdr": 8.391834020614624,
"sdr": 9.233239917001953,
"sir": 20.192046348111077,
"sar": 10.051784765623857,
"stoi": 0.8618449067444054,
"pesq": 1.9163413047790527,
"mix_path": "/dtu-compute/LibriMix/rmth/Fagprojekt194240/our_output_test/sparse_2_0.4/wav8000/mix_noisy/mix_0002974.wav"
}