{
"input_si_sdr": -5.784143447875977,
"input_sdr": -5.359071068199232,
"input_sir": 0.2652900546995689,
"input_sar": -0.7235871664405227,
"input_stoi": 0.6609216859600315,
"input_pesq": 1.3555015325546265,
"si_sdr": 7.105086326599121,
"sdr": 7.910373220784621,
"sir": 15.113239805539743,
"sar": 9.061578924545453,
"stoi": 0.7484947325973653,
"pesq": 1.6401339769363403,
"mix_path": "/dtu-compute/LibriMix/rmth/Fagprojekt194240/our_output_test/sparse_2_0.8/wav8000/mix_noisy/mix_0000487.wav"
}