{
"input_si_sdr": -3.384897828102112,
"input_sdr": -3.2230053280637603,
"input_sir": -0.022145596054601646,
"input_sar": 2.7699895853528944,
"input_stoi": 0.6810952430181598,
"input_pesq": 1.37003755569458,
"si_sdr": 8.952497005462646,
"sdr": 9.740403044442456,
"sir": 20.382674673307946,
"sar": 10.197871691109956,
"stoi": 0.8203309473668992,
"pesq": 1.8882662653923035,
"mix_path": "/dtu-compute/LibriMix/rmth/Fagprojekt194240/our_output_test/sparse_2_0.6/wav8000/mix_noisy/mix_0000841.wav"
}