{
"input_si_sdr": -4.340989708900452,
"input_sdr": -3.9538376013445657,
"input_sir": 0.08590820714565425,
"input_sar": 1.199213300410933,
"input_stoi": 0.6578104896664221,
"input_pesq": 1.3764516115188599,
"si_sdr": 4.426557540893555,
"sdr": 5.363770716330885,
"sir": 11.077407622001875,
"sar": 7.239222903443116,
"stoi": 0.7720840887999316,
"pesq": 1.6118537783622742,
"mix_path": "/dtu-compute/LibriMix/rmth/Fagprojekt194240/our_output_test/SUM_2_mix/wav8000/mix_noisy/mix_0002021.wav"
}