{
"input_si_sdr": -3.551301804021932,
"input_sdr": -3.446752832103223,
"input_sir": 0.05864842177874907,
"input_sar": 3.028345164314732,
"input_stoi": 0.668153403699983,
"input_pesq": 1.344511330127716,
"si_sdr": 7.3971474170684814,
"sdr": 9.65124501202847,
"sir": 22.363725234614495,
"sar": 9.92644933876829,
"stoi": 0.865654839923157,
"pesq": 1.840880274772644,
"mix_path": "/dtu-compute/LibriMix/rmth/Fagprojekt194240/our_output_test/SUM_2_mix/wav8000/mix_noisy/mix_0002854.wav"
}