{
"input_si_sdr": -2.2844752073287964,
"input_sdr": -2.2406810620110003,
"input_sir": 0.1563989736203637,
"input_sar": 5.443019375367849,
"input_stoi": 0.7414089524601685,
"input_pesq": 1.3657556772232056,
"si_sdr": 2.9091938138008118,
"sdr": 3.267317027930608,
"sir": 13.720587715822273,
"sar": 4.0865869232126855,
"stoi": 0.6840303151866909,
"pesq": 1.2371482849121094,
"mix_path": "/dtu-compute/LibriMix/rmth/Fagprojekt194240/our_output_test/sparse_2_1/wav8000/mix_noisy/mix_0000644.wav"
}