{
"si_sdr": 8.283550438698184,
"si_sdr_imp": 11.949597994464645,
"sdr": 9.138756984371872,
"sdr_imp": 12.626842137707454,
"sir": 20.97065640913204,
"sir_imp": 20.871248757453404,
"sar": 9.825551879667934,
"sar_imp": 6.824574661209987,
"stoi": 0.8402745825415772,
"stoi_imp": 0.12079059463464838,
"pesq": 1.9177512410801996,
"pesq_imp": 0.3983461194590301
}