{
"input_si_sdr": -1.3462843894958496,
"input_sdr": -1.2633667394284562,
"input_sir": 0.061919959122357926,
"input_sar": 7.553055032921923,
"input_stoi": 0.7432069640820427,
"input_pesq": 1.454933524131775,
"si_sdr": 11.189861297607422,
"sdr": 11.743872132691077,
"sir": 24.98138539364217,
"sar": 11.971349599107299,
"stoi": 0.878606795803724,
"pesq": 2.113476514816284,
"mix_path": "/dtu-compute/LibriMix/rmth/Fagprojekt194240/our_output_test/sparse_2_0.4/wav8000/mix_noisy/mix_0001087.wav"
}