{
"input_si_sdr": -8.595579385757446,
"input_sdr": -7.929272262840099,
"input_sir": 0.12986277315777817,
"input_sar": -3.87493507072439,
"input_stoi": 0.6524350054860812,
"input_pesq": 1.2536845803260803,
"si_sdr": 3.72584068775177,
"sdr": 4.621859867645719,
"sir": 14.165350506668261,
"sar": 5.326721987470425,
"stoi": 0.7682782192247201,
"pesq": 1.4609330296516418,
"mix_path": "/dtu-compute/LibriMix/rmth/Fagprojekt194240/our_output_test/SUM_2_mix/wav8000/mix_noisy/mix_0002409.wav"
}