{
"input_si_sdr": -2.765430212020874,
"input_sdr": -2.683730435472759,
"input_sir": 1.9110842693959018e-05,
"input_sar": 3.7110311276171526,
"input_stoi": 0.903559349232101,
"input_pesq": 2.1042022705078125,
"si_sdr": 14.388726711273193,
"sdr": 16.284015536230957,
"sir": 49.64459231614236,
"sar": 16.28631577604665,
"stoi": 0.9629039698725981,
"pesq": 2.992728352546692,
"mix_path": "/dtu-compute/LibriMix/rmth/Fagprojekt194240/our_output_test/sparse_2_0/wav8000/mix_noisy/mix_0002867.wav"
}