{
"input_si_sdr": -6.195835828781128,
"input_sdr": -6.039193302757699,
"input_sir": -0.01204437551668558,
"input_sar": -1.7363191778096305,
"input_stoi": 0.7775885667529401,
"input_pesq": 1.5713813304901123,
"si_sdr": 9.835383892059326,
"sdr": 10.484901458092548,
"sir": 28.373796578520512,
"sar": 10.565343685575765,
"stoi": 0.8547118636250928,
"pesq": 2.11263906955719,
"mix_path": "/dtu-compute/LibriMix/rmth/Fagprojekt194240/our_output_test/sparse_2_0.2/wav8000/mix_noisy/mix_0001407.wav"
}