{
"input_si_sdr": -2.6332588344812393,
"input_sdr": -2.5080237368850518,
"input_sir": 0.06376459601363416,
"input_sar": 4.35580956948308,
"input_stoi": 0.6505012959128171,
"input_pesq": 1.6381084322929382,
"si_sdr": 7.648991584777832,
"sdr": 8.409761405328712,
"sir": 16.76005698589453,
"sar": 9.191651809595259,
"stoi": 0.826393187149911,
"pesq": 1.9552655220031738,
"mix_path": "/dtu-compute/LibriMix/rmth/Fagprojekt194240/our_output_test/SUM_2_mix/wav8000/mix_noisy/mix_0002543.wav"
}