{
"input_si_sdr": -6.591507315635681,
"input_sdr": -6.4155464178986135,
"input_sir": 0.2097532463040781,
"input_sar": -1.1862820871009447,
"input_stoi": 0.7986470385802276,
"input_pesq": 1.458996832370758,
"si_sdr": 9.027774810791016,
"sdr": 9.767384966227365,
"sir": 26.33413942398208,
"sar": 9.884933295396419,
"stoi": 0.8981148402604182,
"pesq": 1.7456122636795044,
"mix_path": "/dtu-compute/LibriMix/rmth/Fagprojekt194240/our_output_test/sparse_2_0.6/wav8000/mix_noisy/mix_0000740.wav"
}