{
"input_si_sdr": -1.4296977519989014,
"input_sdr": -1.273791759139843,
"input_sir": -0.10641960061095856,
"input_sar": 9.482190500675802,
"input_stoi": 0.7547055816583886,
"input_pesq": 1.5466503500938416,
"si_sdr": 7.1335601806640625,
"sdr": 8.034512328964462,
"sir": 17.001044698771384,
"sar": 8.910017756539027,
"stoi": 0.8616478696860057,
"pesq": 1.8656337261199951,
"mix_path": "/dtu-compute/LibriMix/rmth/Fagprojekt194240/our_output_test/sparse_2_0.6/wav8000/mix_noisy/mix_0000054.wav"
}