{
"input_si_sdr": -5.224900722503662,
"input_sdr": -5.13296684432727,
"input_sir": -0.007027478367888751,
"input_sar": 0.07948298828661615,
"input_stoi": 0.7593492785910922,
"input_pesq": 1.6405232548713684,
"si_sdr": 8.432903289794922,
"sdr": 9.147844568856598,
"sir": 25.584682743063635,
"sar": 9.260335060463,
"stoi": 0.8576258568761972,
"pesq": 2.0175827145576477,
"mix_path": "/dtu-compute/LibriMix/rmth/Fagprojekt194240/our_output_test/sparse_2_0.2/wav8000/mix_noisy/mix_0000360.wav"
}