{
"input_si_sdr": -4.44774317741394,
"input_sdr": -4.386867339086454,
"input_sir": 0.09490028756568795,
"input_sar": 0.492675269128371,
"input_stoi": 0.6299713524298564,
"input_pesq": 1.3839457035064697,
"si_sdr": -3.2546082139015198,
"sdr": -2.180394426994131,
"sir": 5.063881956654642,
"sar": 3.2735029043567185,
"stoi": 0.6349815651880337,
"pesq": 1.3740217089653015,
"mix_path": "/dtu-compute/LibriMix/rmth/Fagprojekt194240/our_output_test/sparse_2_0.8/wav8000/mix_noisy/mix_0000997.wav"
}