{
"input_si_sdr": -2.646769240498543,
"input_sdr": -2.5038483692424074,
"input_sir": 0.08735817052700834,
"input_sar": 4.278029889374969,
"input_stoi": 0.7797006837771141,
"input_pesq": 1.8736679553985596,
"si_sdr": 12.543031692504883,
"sdr": 13.01070393570384,
"sir": 29.238451490138694,
"sar": 13.147907585312375,
"stoi": 0.8969535161143394,
"pesq": 2.532736897468567,
"mix_path": "/dtu-compute/LibriMix/rmth/Fagprojekt194240/our_output_test/sparse_2_0.2/wav8000/mix_noisy/mix_0000548.wav"
}