%!PS-Adobe-3.0 EPSF-3.0
%%Title: mix_and_100_si_sdr.eps
%%Creator: Matplotlib v3.4.2, https://matplotlib.org/
%%CreationDate: Sun Jun 20 11:30:52 2021
%%Orientation: portrait
%%BoundingBox: 17 195 595 597
%%HiResBoundingBox: 17.739063 195.401875 594.260937 596.598125
%%EndComments
%%BeginProlog
/mpldict 11 dict def
mpldict begin
/_d { bind def } bind def
/m { moveto } _d
/l { lineto } _d
/r { rlineto } _d
/c { curveto } _d
/cl { closepath } _d
/ce { closepath eofill } _d
/box {
      m
      1 index 0 r
      0 exch r
      neg 0 r
      cl
    } _d
/clipbox {
      box
      clip
      newpath
    } _d
/sc { setcachedevice } _d
%!PS-Adobe-3.0 Resource-Font
%%Creator: Converted from TrueType to Type 3 by Matplotlib.
10 dict begin
/FontName /DejaVuSans def
/PaintType 0 def
/FontMatrix [0.00048828125 0 0 0.00048828125 0 0] def
/FontBBox [-2090 -948 3673 2524] def
/FontType 3 def
/Encoding [/space /percent /parenleft /parenright /hyphen /zero /one /two /three /four /five /six /eight /nine /B /D /I /M /O /R /S /T /bracketleft /bracketright /a /d /e /f /i /l /m /n /o /p /r /s /t /v /x] def
/CharStrings 40 dict dup begin
/.notdef 0 def
/space{651 0 0 0 0 0 sc
ce} _d
/percent{1946 0 113 -29 1833 1520 sc
1489 657 m
1431 657 1385 632 1352 583 c
1319 534 1303 465 1303 377 c
1303 290 1319 222 1352 172 c
1385 123 1431 98 1489 98 c
1546 98 1590 123 1623 172 c
1656 222 1673 290 1673 377 c
1673 464 1656 533 1623 582 c
1590 632 1546 657 1489 657 c

1489 784 m
1594 784 1678 747 1740 674 c
1802 601 1833 502 1833 377 c
1833 252 1802 153 1739 80 c
1677 7 1594 -29 1489 -29 c
1382 -29 1298 7 1236 80 c
1174 153 1143 252 1143 377 c
1143 502 1174 601 1236 674 c
1299 747 1383 784 1489 784 c

457 1393 m
400 1393 354 1368 321 1318 c
288 1269 272 1201 272 1114 c
272 1026 288 957 321 908 c
354 859 399 834 457 834 c
515 834 560 859 593 908 c
626 957 643 1026 643 1114 c
643 1200 626 1268 593 1318 c
560 1368 514 1393 457 1393 c

1360 1520 m
1520 1520 l
586 -29 l
426 -29 l
1360 1520 l

457 1520 m
562 1520 646 1483 709 1410 c
772 1337 803 1239 803 1114 c
803 988 772 889 709 816 c
647 743 563 707 457 707 c
351 707 267 743 205 816 c
144 889 113 989 113 1114 c
113 1238 144 1337 206 1410 c
268 1483 352 1520 457 1520 c

ce} _d
/parenleft{799 0 176 -270 635 1554 sc
635 1554 m
546 1401 479 1249 436 1099 c
393 949 371 797 371 643 c
371 489 393 336 436 185 c
480 34 546 -117 635 -270 c
475 -270 l
375 -113 300 41 250 192 c
201 343 176 494 176 643 c
176 792 201 941 250 1092 c
299 1243 374 1397 475 1554 c
635 1554 l

ce} _d
/parenright{799 0 164 -270 623 1554 sc
164 1554 m
324 1554 l
424 1397 499 1243 548 1092 c
598 941 623 792 623 643 c
623 494 598 343 548 192 c
499 41 424 -113 324 -270 c
164 -270 l
253 -117 319 34 362 185 c
406 336 428 489 428 643 c
428 797 406 949 362 1099 c
319 1249 253 1401 164 1554 c

ce} _d
/hyphen{739 0 100 479 639 643 sc
100 643 m
639 643 l
639 479 l
100 479 l
100 643 l

ce} _d
/zero{1303 0 135 -29 1167 1520 sc
651 1360 m
547 1360 469 1309 416 1206 c
364 1104 338 950 338 745 c
338 540 364 387 416 284 c
469 182 547 131 651 131 c
756 131 834 182 886 284 c
939 387 965 540 965 745 c
965 950 939 1104 886 1206 c
834 1309 756 1360 651 1360 c

651 1520 m
818 1520 946 1454 1034 1321 c
1123 1189 1167 997 1167 745 c
1167 494 1123 302 1034 169 c
946 37 818 -29 651 -29 c
484 -29 356 37 267 169 c
179 302 135 494 135 745 c
135 997 179 1189 267 1321 c
356 1454 484 1520 651 1520 c

ce} _d
/one{1303 0 225 0 1114 1493 sc
254 170 m
584 170 l
584 1309 l
225 1237 l
225 1421 l
582 1493 l
784 1493 l
784 170 l
1114 170 l
1114 0 l
254 0 l
254 170 l

ce} _d
/two{1303 0 150 0 1098 1520 sc
393 170 m
1098 170 l
1098 0 l
150 0 l
150 170 l
227 249 331 356 463 489 c
596 623 679 709 713 748 c
778 821 823 882 848 932 c
874 983 887 1032 887 1081 c
887 1160 859 1225 803 1275 c
748 1325 675 1350 586 1350 c
523 1350 456 1339 385 1317 c
315 1295 240 1262 160 1217 c
160 1421 l
241 1454 317 1478 388 1495 c
459 1512 523 1520 582 1520 c
737 1520 860 1481 952 1404 c
1044 1327 1090 1223 1090 1094 c
1090 1033 1078 974 1055 919 c
1032 864 991 800 930 725 c
913 706 860 650 771 557 c
682 465 556 336 393 170 c

ce} _d
/three{1303 0 156 -29 1139 1520 sc
831 805 m
928 784 1003 741 1057 676 c
1112 611 1139 530 1139 434 c
1139 287 1088 173 987 92 c
886 11 742 -29 555 -29 c
492 -29 428 -23 361 -10 c
295 2 227 20 156 45 c
156 240 l
212 207 273 183 340 166 c
407 149 476 141 549 141 c
676 141 772 166 838 216 c
905 266 938 339 938 434 c
938 522 907 591 845 640 c
784 690 698 715 588 715 c
414 715 l
414 881 l
596 881 l
695 881 771 901 824 940 c
877 980 903 1037 903 1112 c
903 1189 876 1247 821 1288 c
767 1329 689 1350 588 1350 c
533 1350 473 1344 410 1332 c
347 1320 277 1301 201 1276 c
201 1456 l
278 1477 349 1493 416 1504 c
483 1515 547 1520 606 1520 c
759 1520 881 1485 970 1415 c
1059 1346 1104 1252 1104 1133 c
1104 1050 1080 980 1033 923 c
986 866 918 827 831 805 c

ce} _d
/four{1303 0 100 0 1188 1493 sc
774 1317 m
264 520 l
774 520 l
774 1317 l

721 1493 m
975 1493 l
975 520 l
1188 520 l
1188 352 l
975 352 l
975 0 l
774 0 l
774 352 l
100 352 l
100 547 l
721 1493 l

ce} _d
/five{1303 0 158 -29 1124 1493 sc
221 1493 m
1014 1493 l
1014 1323 l
406 1323 l
406 957 l
435 967 465 974 494 979 c
523 984 553 987 582 987 c
749 987 881 941 978 850 c
1075 759 1124 635 1124 479 c
1124 318 1074 193 974 104 c
874 15 733 -29 551 -29 c
488 -29 424 -24 359 -13 c
294 -2 227 14 158 35 c
158 238 l
218 205 280 181 344 165 c
408 149 476 141 547 141 c
662 141 754 171 821 232 c
888 293 922 375 922 479 c
922 583 888 665 821 726 c
754 787 662 817 547 817 c
493 817 439 811 385 799 c
332 787 277 768 221 743 c
221 1493 l

ce} _d
/six{1303 0 143 -29 1174 1520 sc
676 827 m
585 827 513 796 460 734 c
407 672 381 587 381 479 c
381 372 407 287 460 224 c
513 162 585 131 676 131 c
767 131 838 162 891 224 c
944 287 971 372 971 479 c
971 587 944 672 891 734 c
838 796 767 827 676 827 c

1077 1460 m
1077 1276 l
1026 1300 975 1318 923 1331 c
872 1344 821 1350 770 1350 c
637 1350 535 1305 464 1215 c
394 1125 354 989 344 807 c
383 865 433 909 492 940 c
551 971 617 987 688 987 c
838 987 956 941 1043 850 c
1130 759 1174 636 1174 479 c
1174 326 1129 203 1038 110 c
947 17 827 -29 676 -29 c
503 -29 371 37 280 169 c
189 302 143 494 143 745 c
143 981 199 1169 311 1309 c
423 1450 573 1520 762 1520 c
813 1520 864 1515 915 1505 c
967 1495 1021 1480 1077 1460 c

ce} _d
/eight{1303 0 139 -29 1163 1520 sc
651 709 m
555 709 479 683 424 632 c
369 581 342 510 342 420 c
342 330 369 259 424 208 c
479 157 555 131 651 131 c
747 131 823 157 878 208 c
933 260 961 331 961 420 c
961 510 933 581 878 632 c
823 683 748 709 651 709 c

449 795 m
362 816 295 857 246 916 c
198 975 174 1048 174 1133 c
174 1252 216 1347 301 1416 c
386 1485 503 1520 651 1520 c
800 1520 916 1485 1001 1416 c
1086 1347 1128 1252 1128 1133 c
1128 1048 1104 975 1055 916 c
1007 857 940 816 854 795 c
951 772 1027 728 1081 662 c
1136 596 1163 515 1163 420 c
1163 275 1119 164 1030 87 c
942 10 816 -29 651 -29 c
486 -29 360 10 271 87 c
183 164 139 275 139 420 c
139 515 166 596 221 662 c
276 728 352 772 449 795 c

375 1114 m
375 1037 399 976 447 933 c
496 890 564 868 651 868 c
738 868 805 890 854 933 c
903 976 928 1037 928 1114 c
928 1191 903 1252 854 1295 c
805 1338 738 1360 651 1360 c
564 1360 496 1338 447 1295 c
399 1252 375 1191 375 1114 c

ce} _d
/nine{1303 0 129 -29 1159 1520 sc
225 31 m
225 215 l
276 191 327 173 379 160 c
431 147 482 141 532 141 c
665 141 767 186 837 275 c
908 365 948 501 958 684 c
919 627 870 583 811 552 c
752 521 686 506 614 506 c
465 506 346 551 259 641 c
172 732 129 855 129 1012 c
129 1165 174 1288 265 1381 c
356 1474 476 1520 627 1520 c
800 1520 931 1454 1022 1321 c
1113 1189 1159 997 1159 745 c
1159 510 1103 322 991 181 c
880 41 730 -29 541 -29 c
490 -29 439 -24 387 -14 c
335 -4 281 11 225 31 c

627 664 m
718 664 789 695 842 757 c
895 819 922 904 922 1012 c
922 1119 895 1204 842 1266 c
789 1329 718 1360 627 1360 c
536 1360 464 1329 411 1266 c
358 1204 332 1119 332 1012 c
332 904 358 819 411 757 c
464 695 536 664 627 664 c

ce} _d
/B{1405 0 201 0 1260 1493 sc
403 713 m
403 166 l
727 166 l
836 166 916 188 968 233 c
1021 278 1047 347 1047 440 c
1047 533 1021 602 968 646 c
916 691 836 713 727 713 c
403 713 l

403 1327 m
403 877 l
702 877 l
801 877 874 895 922 932 c
971 969 995 1026 995 1102 c
995 1177 971 1234 922 1271 c
874 1308 801 1327 702 1327 c
403 1327 l

201 1493 m
717 1493 l
871 1493 990 1461 1073 1397 c
1156 1333 1198 1242 1198 1124 c
1198 1033 1177 960 1134 906 c
1091 852 1029 818 946 805 c
1045 784 1122 739 1177 671 c
1232 604 1260 519 1260 418 c
1260 285 1215 182 1124 109 c
1033 36 904 0 737 0 c
201 0 l
201 1493 l

ce} _d
/D{1577 0 201 0 1456 1493 sc
403 1327 m
403 166 l
647 166 l
853 166 1004 213 1099 306 c
1195 399 1243 547 1243 748 c
1243 948 1195 1094 1099 1187 c
1004 1280 853 1327 647 1327 c
403 1327 l

201 1493 m
616 1493 l
905 1493 1118 1433 1253 1312 c
1388 1192 1456 1004 1456 748 c
1456 491 1388 302 1252 181 c
1116 60 904 0 616 0 c
201 0 l
201 1493 l

ce} _d
/I{604 0 201 0 403 1493 sc
201 1493 m
403 1493 l
403 0 l
201 0 l
201 1493 l

ce} _d
/M{1767 0 201 0 1567 1493 sc
201 1493 m
502 1493 l
883 477 l
1266 1493 l
1567 1493 l
1567 0 l
1370 0 l
1370 1311 l
985 287 l
782 287 l
397 1311 l
397 0 l
201 0 l
201 1493 l

ce} _d
/O{1612 0 115 -29 1497 1520 sc
807 1356 m
660 1356 544 1301 457 1192 c
371 1083 328 934 328 745 c
328 557 371 408 457 299 c
544 190 660 135 807 135 c
954 135 1070 190 1155 299 c
1241 408 1284 557 1284 745 c
1284 934 1241 1083 1155 1192 c
1070 1301 954 1356 807 1356 c

807 1520 m
1016 1520 1184 1450 1309 1309 c
1434 1169 1497 981 1497 745 c
1497 510 1434 322 1309 181 c
1184 41 1016 -29 807 -29 c
597 -29 429 41 303 181 c
178 321 115 509 115 745 c
115 981 178 1169 303 1309 c
429 1450 597 1520 807 1520 c

ce} _d
/R{1423 0 201 0 1364 1493 sc
909 700 m
952 685 994 654 1035 606 c
1076 558 1118 492 1159 408 c
1364 0 l
1147 0 l
956 383 l
907 483 859 549 812 582 c
766 615 703 631 623 631 c
403 631 l
403 0 l
201 0 l
201 1493 l
657 1493 l
828 1493 955 1457 1039 1386 c
1123 1315 1165 1207 1165 1063 c
1165 969 1143 891 1099 829 c
1056 767 992 724 909 700 c

403 1327 m
403 797 l
657 797 l
754 797 828 819 877 864 c
927 909 952 976 952 1063 c
952 1150 927 1216 877 1260 c
828 1305 754 1327 657 1327 c
403 1327 l

ce} _d
/S{1300 0 135 -29 1186 1520 sc
1096 1444 m
1096 1247 l
1019 1284 947 1311 879 1329 c
811 1347 745 1356 682 1356 c
572 1356 487 1335 427 1292 c
368 1249 338 1189 338 1110 c
338 1044 358 994 397 960 c
437 927 512 900 623 879 c
745 854 l
896 825 1007 775 1078 702 c
1150 630 1186 533 1186 412 c
1186 267 1137 158 1040 83 c
943 8 801 -29 614 -29 c
543 -29 468 -21 388 -5 c
309 11 226 35 141 66 c
141 274 l
223 228 303 193 382 170 c
461 147 538 135 614 135 c
729 135 818 158 881 203 c
944 248 975 313 975 397 c
975 470 952 528 907 569 c
862 610 789 641 686 662 c
563 686 l
412 716 303 763 236 827 c
169 891 135 980 135 1094 c
135 1226 181 1330 274 1406 c
367 1482 496 1520 659 1520 c
729 1520 800 1514 873 1501 c
946 1488 1020 1469 1096 1444 c

ce} _d
/T{1251 0 -6 0 1257 1493 sc
-6 1493 m
1257 1493 l
1257 1323 l
727 1323 l
727 0 l
524 0 l
524 1323 l
-6 1323 l
-6 1493 l

ce} _d
/bracketleft{799 0 176 -270 600 1556 sc
176 1556 m
600 1556 l
600 1413 l
360 1413 l
360 -127 l
600 -127 l
600 -270 l
176 -270 l
176 1556 l

ce} _d
/bracketright{799 0 199 -270 623 1556 sc
623 1556 m
623 -270 l
199 -270 l
199 -127 l
438 -127 l
438 1413 l
199 1413 l
199 1556 l
623 1556 l

ce} _d
/a{1255 0 123 -29 1069 1147 sc
702 563 m
553 563 450 546 393 512 c
336 478 307 420 307 338 c
307 273 328 221 371 182 c
414 144 473 125 547 125 c
649 125 731 161 792 233 c
854 306 885 402 885 522 c
885 563 l
702 563 l

1069 639 m
1069 0 l
885 0 l
885 170 l
843 102 791 52 728 19 c
665 -13 589 -29 498 -29 c
383 -29 292 3 224 67 c
157 132 123 218 123 326 c
123 452 165 547 249 611 c
334 675 460 707 627 707 c
885 707 l
885 725 l
885 810 857 875 801 921 c
746 968 668 991 567 991 c
503 991 441 983 380 968 c
319 953 261 930 205 899 c
205 1069 l
272 1095 338 1114 401 1127 c
464 1140 526 1147 586 1147 c
748 1147 869 1105 949 1021 c
1029 937 1069 810 1069 639 c

ce} _d
/d{1300 0 113 -29 1114 1556 sc
930 950 m
930 1556 l
1114 1556 l
1114 0 l
930 0 l
930 168 l
891 101 842 52 783 19 c
724 -13 654 -29 571 -29 c
436 -29 325 25 240 133 c
155 241 113 383 113 559 c
113 735 155 877 240 985 c
325 1093 436 1147 571 1147 c
654 1147 724 1131 783 1098 c
842 1066 891 1017 930 950 c

303 559 m
303 424 331 317 386 240 c
442 163 519 125 616 125 c
713 125 790 163 846 240 c
902 317 930 424 930 559 c
930 694 902 800 846 877 c
790 954 713 993 616 993 c
519 993 442 954 386 877 c
331 800 303 694 303 559 c

ce} _d
/e{1260 0 113 -29 1151 1147 sc
1151 606 m
1151 516 l
305 516 l
313 389 351 293 419 226 c
488 160 583 127 705 127 c
776 127 844 136 910 153 c
977 170 1043 196 1108 231 c
1108 57 l
1042 29 974 8 905 -7 c
836 -22 765 -29 694 -29 c
515 -29 374 23 269 127 c
165 231 113 372 113 549 c
113 732 162 878 261 985 c
360 1093 494 1147 662 1147 c
813 1147 932 1098 1019 1001 c
1107 904 1151 773 1151 606 c

967 660 m
966 761 937 841 882 901 c
827 961 755 991 664 991 c
561 991 479 962 417 904 c
356 846 320 764 311 659 c
967 660 l

ce} _d
/f{721 0 47 0 760 1556 sc
760 1556 m
760 1403 l
584 1403 l
518 1403 472 1390 446 1363 c
421 1336 408 1288 408 1219 c
408 1120 l
711 1120 l
711 977 l
408 977 l
408 0 l
223 0 l
223 977 l
47 977 l
47 1120 l
223 1120 l
223 1198 l
223 1323 252 1413 310 1470 c
368 1527 460 1556 586 1556 c
760 1556 l

ce} _d
/i{569 0 193 0 377 1556 sc
193 1120 m
377 1120 l
377 0 l
193 0 l
193 1120 l

193 1556 m
377 1556 l
377 1323 l
193 1323 l
193 1556 l

ce} _d
/l{569 0 193 0 377 1556 sc
193 1556 m
377 1556 l
377 0 l
193 0 l
193 1556 l

ce} _d
/m{1995 0 186 0 1821 1147 sc
1065 905 m
1111 988 1166 1049 1230 1088 c
1294 1127 1369 1147 1456 1147 c
1573 1147 1663 1106 1726 1024 c
1789 943 1821 827 1821 676 c
1821 0 l
1636 0 l
1636 670 l
1636 777 1617 857 1579 909 c
1541 961 1483 987 1405 987 c
1310 987 1234 955 1179 892 c
1124 829 1096 742 1096 633 c
1096 0 l
911 0 l
911 670 l
911 778 892 858 854 909 c
816 961 757 987 678 987 c
584 987 509 955 454 891 c
399 828 371 742 371 633 c
371 0 l
186 0 l
186 1120 l
371 1120 l
371 946 l
413 1015 463 1065 522 1098 c
581 1131 650 1147 731 1147 c
812 1147 881 1126 938 1085 c
995 1044 1038 984 1065 905 c

ce} _d
/n{1298 0 186 0 1124 1147 sc
1124 676 m
1124 0 l
940 0 l
940 670 l
940 776 919 855 878 908 c
837 961 775 987 692 987 c
593 987 514 955 457 892 c
400 829 371 742 371 633 c
371 0 l
186 0 l
186 1120 l
371 1120 l
371 946 l
415 1013 467 1064 526 1097 c
586 1130 655 1147 733 1147 c
862 1147 959 1107 1025 1027 c
1091 948 1124 831 1124 676 c

ce} _d
/o{1253 0 113 -29 1141 1147 sc
627 991 m
528 991 450 952 393 875 c
336 798 307 693 307 559 c
307 425 335 319 392 242 c
449 165 528 127 627 127 c
725 127 803 166 860 243 c
917 320 946 426 946 559 c
946 692 917 797 860 874 c
803 952 725 991 627 991 c

627 1147 m
787 1147 913 1095 1004 991 c
1095 887 1141 743 1141 559 c
1141 376 1095 232 1004 127 c
913 23 787 -29 627 -29 c
466 -29 340 23 249 127 c
158 232 113 376 113 559 c
113 743 158 887 249 991 c
340 1095 466 1147 627 1147 c

ce} _d
/p{1300 0 186 -426 1188 1147 sc
371 168 m
371 -426 l
186 -426 l
186 1120 l
371 1120 l
371 950 l
410 1017 458 1066 517 1098 c
576 1131 647 1147 729 1147 c
865 1147 975 1093 1060 985 c
1145 877 1188 735 1188 559 c
1188 383 1145 241 1060 133 c
975 25 865 -29 729 -29 c
647 -29 576 -13 517 19 c
458 52 410 101 371 168 c

997 559 m
997 694 969 800 913 877 c
858 954 781 993 684 993 c
587 993 510 954 454 877 c
399 800 371 694 371 559 c
371 424 399 317 454 240 c
510 163 587 125 684 125 c
781 125 858 163 913 240 c
969 317 997 424 997 559 c

ce} _d
/r{842 0 186 0 842 1147 sc
842 948 m
821 960 799 969 774 974 c
750 980 723 983 694 983 c
590 983 510 949 454 881 c
399 814 371 717 371 590 c
371 0 l
186 0 l
186 1120 l
371 1120 l
371 946 l
410 1014 460 1064 522 1097 c
584 1130 659 1147 748 1147 c
761 1147 775 1146 790 1144 c
805 1143 822 1140 841 1137 c
842 948 l

ce} _d
/s{1067 0 111 -29 967 1147 sc
907 1087 m
907 913 l
855 940 801 960 745 973 c
689 986 631 993 571 993 c
480 993 411 979 365 951 c
320 923 297 881 297 825 c
297 782 313 749 346 724 c
379 700 444 677 543 655 c
606 641 l
737 613 829 573 884 522 c
939 471 967 400 967 309 c
967 205 926 123 843 62 c
761 1 648 -29 504 -29 c
444 -29 381 -23 316 -11 c
251 0 183 18 111 41 c
111 231 l
179 196 246 169 312 151 c
378 134 443 125 508 125 c
595 125 661 140 708 169 c
755 199 778 241 778 295 c
778 345 761 383 727 410 c
694 437 620 462 506 487 c
442 502 l
328 526 246 563 195 612 c
144 662 119 730 119 817 c
119 922 156 1004 231 1061 c
306 1118 412 1147 549 1147 c
617 1147 681 1142 741 1132 c
801 1122 856 1107 907 1087 c

ce} _d
/t{803 0 55 0 754 1438 sc
375 1438 m
375 1120 l
754 1120 l
754 977 l
375 977 l
375 369 l
375 278 387 219 412 193 c
437 167 488 154 565 154 c
754 154 l
754 0 l
565 0 l
423 0 325 26 271 79 c
217 132 190 229 190 369 c
190 977 l
55 977 l
55 1120 l
190 1120 l
190 1438 l
375 1438 l

ce} _d
/v{1212 0 61 0 1151 1120 sc
61 1120 m
256 1120 l
606 180 l
956 1120 l
1151 1120 l
731 0 l
481 0 l
61 1120 l

ce} _d
/x{1212 0 59 0 1145 1120 sc
1124 1120 m
719 575 l
1145 0 l
928 0 l
602 440 l
276 0 l
59 0 l
494 586 l
96 1120 l
313 1120 l
610 721 l
907 1120 l
1124 1120 l

ce} _d
end readonly def

/BuildGlyph {
 exch begin
 CharStrings exch
 2 copy known not {pop /.notdef} if
 true 3 1 roll get exec
 end
} _d

/BuildChar {
 1 index /Encoding get exch get
 1 index /BuildGlyph get exec
} _d

FontName currentdict end definefont pop
end
%%EndProlog
mpldict begin
17.739 195.402 translate
576.522 401.196 0 0 clipbox
gsave
0 0 m
576.521875 0 l
576.521875 401.19625 l
0 401.19625 l
cl
1.000 setgray
fill
grestore
gsave
67.121875 61.35625 m
569.321875 61.35625 l
569.321875 393.99625 l
67.121875 393.99625 l
cl
0.918 0.918 0.949 setrgbcolor
fill
grestore
0.150 setgray
/DejaVuSans 19.800 selectfont
gsave

96.712054 36.653125 translate
0.000000 rotate
0.000000 0 m /zero glyphshow
grestore
gsave

162.173661 36.653125 translate
0.000000 rotate
0.000000 0 m /two glyphshow
12.565552 0 m /zero glyphshow
grestore
gsave

233.916518 36.653125 translate
0.000000 rotate
0.000000 0 m /four glyphshow
12.565552 0 m /zero glyphshow
grestore
gsave

305.659375 36.653125 translate
0.000000 rotate
0.000000 0 m /six glyphshow
12.565552 0 m /zero glyphshow
grestore
gsave

377.402232 36.653125 translate
0.000000 rotate
0.000000 0 m /eight glyphshow
12.565552 0 m /zero glyphshow
grestore
gsave

442.863839 36.653125 translate
0.000000 rotate
0.000000 0 m /one glyphshow
12.565552 0 m /zero glyphshow
25.131104 0 m /zero glyphshow
grestore
gsave

516.341071 36.653125 translate
0.000000 rotate
0.000000 0 m /M glyphshow
17.040161 0 m /i glyphshow
22.527344 0 m /x glyphshow
grestore
/DejaVuSans 21.600 selectfont
gsave

167.151563 11.778125 translate
0.000000 rotate
0.000000 0 m /O glyphshow
17.021240 0 m /v glyphshow
29.818848 0 m /e glyphshow
43.123291 0 m /r glyphshow
52.014038 0 m /l glyphshow
58.022156 0 m /a glyphshow
71.273804 0 m /p glyphshow
85.000610 0 m /space glyphshow
91.874573 0 m /r glyphshow
100.765320 0 m /a glyphshow
114.016968 0 m /t glyphshow
122.495911 0 m /i glyphshow
128.504028 0 m /o glyphshow
141.734558 0 m /space glyphshow
148.608521 0 m /o glyphshow
161.839050 0 m /f glyphshow
169.452148 0 m /space glyphshow
176.326111 0 m /t glyphshow
184.805054 0 m /e glyphshow
198.109497 0 m /s glyphshow
209.376038 0 m /t glyphshow
217.854980 0 m /space glyphshow
224.728943 0 m /s glyphshow
235.995483 0 m /e glyphshow
249.299927 0 m /t glyphshow
257.778870 0 m /space glyphshow
264.652832 0 m /parenleft glyphshow
273.089539 0 m /percent glyphshow
293.637512 0 m /parenright glyphshow
grestore
1.000 setlinewidth
1 setlinejoin
1 setlinecap
[] 0 setdash
1.000 setgray
gsave
502.2 332.64 67.122 61.356 clipbox
67.121875 61.35625 m
569.321875 61.35625 l
stroke
grestore
0.150 setgray
/DejaVuSans 19.800 selectfont
gsave

45.059375 53.754687 translate
0.000000 rotate
0.000000 0 m /eight glyphshow
grestore
1.000 setgray
gsave
502.2 332.64 67.122 61.356 clipbox
67.121875 106.449928 m
569.321875 106.449928 l
stroke
grestore
0.150 setgray
gsave

45.059375 98.848365 translate
0.000000 rotate
0.000000 0 m /nine glyphshow
grestore
1.000 setgray
gsave
502.2 332.64 67.122 61.356 clipbox
67.121875 151.543605 m
569.321875 151.543605 l
stroke
grestore
0.150 setgray
gsave

32.496875 143.942043 translate
0.000000 rotate
0.000000 0 m /one glyphshow
12.565552 0 m /zero glyphshow
grestore
1.000 setgray
gsave
502.2 332.64 67.122 61.356 clipbox
67.121875 196.637283 m
569.321875 196.637283 l
stroke
grestore
0.150 setgray
gsave

32.496875 189.035721 translate
0.000000 rotate
0.000000 0 m /one glyphshow
12.565552 0 m /one glyphshow
grestore
1.000 setgray
gsave
502.2 332.64 67.122 61.356 clipbox
67.121875 241.730961 m
569.321875 241.730961 l
stroke
grestore
0.150 setgray
gsave

32.496875 234.129398 translate
0.000000 rotate
0.000000 0 m /one glyphshow
12.565552 0 m /two glyphshow
grestore
1.000 setgray
gsave
502.2 332.64 67.122 61.356 clipbox
67.121875 286.824639 m
569.321875 286.824639 l
stroke
grestore
0.150 setgray
gsave

32.496875 279.223076 translate
0.000000 rotate
0.000000 0 m /one glyphshow
12.565552 0 m /three glyphshow
grestore
1.000 setgray
gsave
502.2 332.64 67.122 61.356 clipbox
67.121875 331.918316 m
569.321875 331.918316 l
stroke
grestore
0.150 setgray
gsave

32.496875 324.316754 translate
0.000000 rotate
0.000000 0 m /one glyphshow
12.565552 0 m /four glyphshow
grestore
1.000 setgray
gsave
502.2 332.64 67.122 61.356 clipbox
67.121875 377.011994 m
569.321875 377.011994 l
stroke
grestore
0.150 setgray
gsave

32.496875 369.410432 translate
0.000000 rotate
0.000000 0 m /one glyphshow
12.565552 0 m /five glyphshow
grestore
/DejaVuSans 21.600 selectfont
gsave

23.918750 88.855938 translate
90.000000 rotate
0.000000 0 m /S glyphshow
13.726807 0 m /I glyphshow
20.104492 0 m /hyphen glyphshow
27.907654 0 m /S glyphshow
41.634460 0 m /D glyphshow
58.286133 0 m /R glyphshow
73.311707 0 m /space glyphshow
80.185669 0 m /i glyphshow
86.193787 0 m /m glyphshow
107.259155 0 m /p glyphshow
120.985962 0 m /r glyphshow
129.376709 0 m /o glyphshow
142.607239 0 m /v glyphshow
155.404846 0 m /e glyphshow
168.709290 0 m /m glyphshow
189.774658 0 m /e glyphshow
203.079102 0 m /n glyphshow
216.784790 0 m /t glyphshow
225.263733 0 m /space glyphshow
232.137695 0 m /bracketleft glyphshow
240.574402 0 m /d glyphshow
254.301208 0 m /B glyphshow
269.136719 0 m /bracketright glyphshow
grestore
0 setlinejoin
0 setlinecap
1.000 setgray
gsave
502.2 332.64 67.122 61.356 clipbox
74.296161 -299.393172 m
102.993304 -299.393172 l
102.993304 162.952374 l
74.296161 162.952374 l
cl
gsave
0.081 0.570 0.570 setrgbcolor
fill
grestore
stroke
grestore
gsave
502.2 332.64 67.122 61.356 clipbox
146.039018 -299.393172 m
174.736161 -299.393172 l
174.736161 245.78252 l
146.039018 245.78252 l
cl
gsave
0.081 0.570 0.570 setrgbcolor
fill
grestore
stroke
grestore
gsave
502.2 332.64 67.122 61.356 clipbox
217.781875 -299.393172 m
246.479018 -299.393172 l
246.479018 247.491784 l
217.781875 247.491784 l
cl
gsave
0.081 0.570 0.570 setrgbcolor
fill
grestore
stroke
grestore
gsave
502.2 332.64 67.122 61.356 clipbox
289.524732 -299.393172 m
318.221875 -299.393172 l
318.221875 236.650914 l
289.524732 236.650914 l
cl
gsave
0.081 0.570 0.570 setrgbcolor
fill
grestore
stroke
grestore
gsave
502.2 332.64 67.122 61.356 clipbox
361.267589 -299.393172 m
389.964732 -299.393172 l
389.964732 224.919561 l
361.267589 224.919561 l
cl
gsave
0.081 0.570 0.570 setrgbcolor
fill
grestore
stroke
grestore
gsave
502.2 332.64 67.122 61.356 clipbox
433.010446 -299.393172 m
461.707589 -299.393172 l
461.707589 205.502183 l
433.010446 205.502183 l
cl
gsave
0.081 0.570 0.570 setrgbcolor
fill
grestore
stroke
grestore
gsave
502.2 332.64 67.122 61.356 clipbox
504.753304 -299.393172 m
533.450446 -299.393172 l
533.450446 222.043601 l
504.753304 222.043601 l
cl
gsave
0.081 0.570 0.570 setrgbcolor
fill
grestore
stroke
grestore
gsave
502.2 332.64 67.122 61.356 clipbox
102.993304 -299.393172 m
131.690446 -299.393172 l
131.690446 353.367546 l
102.993304 353.367546 l
cl
gsave
0.824 0.715 0.145 setrgbcolor
fill
grestore
stroke
grestore
gsave
502.2 332.64 67.122 61.356 clipbox
174.736161 -299.393172 m
203.433304 -299.393172 l
203.433304 290.461144 l
174.736161 290.461144 l
cl
gsave
0.824 0.715 0.145 setrgbcolor
fill
grestore
stroke
grestore
gsave
502.2 332.64 67.122 61.356 clipbox
246.479018 -299.393172 m
275.176161 -299.393172 l
275.176161 233.80214 l
246.479018 233.80214 l
cl
gsave
0.824 0.715 0.145 setrgbcolor
fill
grestore
stroke
grestore
gsave
502.2 332.64 67.122 61.356 clipbox
318.221875 -299.393172 m
346.919018 -299.393172 l
346.919018 198.294295 l
318.221875 198.294295 l
cl
gsave
0.824 0.715 0.145 setrgbcolor
fill
grestore
stroke
grestore
gsave
502.2 332.64 67.122 61.356 clipbox
389.964732 -299.393172 m
418.661875 -299.393172 l
418.661875 173.25368 l
389.964732 173.25368 l
cl
gsave
0.824 0.715 0.145 setrgbcolor
fill
grestore
stroke
grestore
gsave
502.2 332.64 67.122 61.356 clipbox
461.707589 -299.393172 m
490.404732 -299.393172 l
490.404732 145.755895 l
461.707589 145.755895 l
cl
gsave
0.824 0.715 0.145 setrgbcolor
fill
grestore
stroke
grestore
gsave
502.2 332.64 67.122 61.356 clipbox
533.450446 -299.393172 m
562.147589 -299.393172 l
562.147589 232.519265 l
533.450446 232.519265 l
cl
gsave
0.824 0.715 0.145 setrgbcolor
fill
grestore
stroke
grestore
2.000 setlinewidth
1 setlinejoin
1 setlinecap
0.260 setgray
gsave
502.2 332.64 67.122 61.356 clipbox
88.644732 148.115806 m
88.644732 179.112757 l
stroke
grestore
gsave
502.2 332.64 67.122 61.356 clipbox
83.264018 148.115806 m
94.025446 148.115806 l
stroke
grestore
gsave
502.2 332.64 67.122 61.356 clipbox
83.264018 179.112757 m
94.025446 179.112757 l
stroke
grestore
gsave
502.2 332.64 67.122 61.356 clipbox
160.387589 236.076442 m
160.387589 254.978742 l
stroke
grestore
gsave
502.2 332.64 67.122 61.356 clipbox
155.006875 236.076442 m
165.768304 236.076442 l
stroke
grestore
gsave
502.2 332.64 67.122 61.356 clipbox
155.006875 254.978742 m
165.768304 254.978742 l
stroke
grestore
gsave
502.2 332.64 67.122 61.356 clipbox
232.130446 240.633337 m
232.130446 253.734369 l
stroke
grestore
gsave
502.2 332.64 67.122 61.356 clipbox
226.749732 240.633337 m
237.511161 240.633337 l
stroke
grestore
gsave
502.2 332.64 67.122 61.356 clipbox
226.749732 253.734369 m
237.511161 253.734369 l
stroke
grestore
gsave
502.2 332.64 67.122 61.356 clipbox
303.873304 231.271648 m
303.873304 241.890651 l
stroke
grestore
gsave
502.2 332.64 67.122 61.356 clipbox
298.492589 231.271648 m
309.254018 231.271648 l
stroke
grestore
gsave
502.2 332.64 67.122 61.356 clipbox
298.492589 241.890651 m
309.254018 241.890651 l
stroke
grestore
gsave
502.2 332.64 67.122 61.356 clipbox
375.616161 219.748745 m
375.616161 229.953157 l
stroke
grestore
gsave
502.2 332.64 67.122 61.356 clipbox
370.235446 219.748745 m
380.996875 219.748745 l
stroke
grestore
gsave
502.2 332.64 67.122 61.356 clipbox
370.235446 229.953157 m
380.996875 229.953157 l
stroke
grestore
gsave
502.2 332.64 67.122 61.356 clipbox
447.359018 201.052177 m
447.359018 210.307769 l
stroke
grestore
gsave
502.2 332.64 67.122 61.356 clipbox
441.978304 201.052177 m
452.739732 201.052177 l
stroke
grestore
gsave
502.2 332.64 67.122 61.356 clipbox
441.978304 210.307769 m
452.739732 210.307769 l
stroke
grestore
gsave
502.2 332.64 67.122 61.356 clipbox
519.101875 213.470143 m
519.101875 229.474848 l
stroke
grestore
gsave
502.2 332.64 67.122 61.356 clipbox
513.721161 213.470143 m
524.482589 213.470143 l
stroke
grestore
gsave
502.2 332.64 67.122 61.356 clipbox
513.721161 229.474848 m
524.482589 229.474848 l
stroke
grestore
gsave
502.2 332.64 67.122 61.356 clipbox
117.341875 345.49658 m
117.341875 360.977706 l
stroke
grestore
gsave
502.2 332.64 67.122 61.356 clipbox
111.961161 345.49658 m
122.722589 345.49658 l
stroke
grestore
gsave
502.2 332.64 67.122 61.356 clipbox
111.961161 360.977706 m
122.722589 360.977706 l
stroke
grestore
gsave
502.2 332.64 67.122 61.356 clipbox
189.084732 283.761069 m
189.084732 296.623709 l
stroke
grestore
gsave
502.2 332.64 67.122 61.356 clipbox
183.704018 283.761069 m
194.465446 283.761069 l
stroke
grestore
gsave
502.2 332.64 67.122 61.356 clipbox
183.704018 296.623709 m
194.465446 296.623709 l
stroke
grestore
gsave
502.2 332.64 67.122 61.356 clipbox
260.827589 228.22408 m
260.827589 239.424702 l
stroke
grestore
gsave
502.2 332.64 67.122 61.356 clipbox
255.446875 228.22408 m
266.208304 228.22408 l
stroke
grestore
gsave
502.2 332.64 67.122 61.356 clipbox
255.446875 239.424702 m
266.208304 239.424702 l
stroke
grestore
gsave
502.2 332.64 67.122 61.356 clipbox
332.570446 193.323065 m
332.570446 203.560043 l
stroke
grestore
gsave
502.2 332.64 67.122 61.356 clipbox
327.189732 193.323065 m
337.951161 193.323065 l
stroke
grestore
gsave
502.2 332.64 67.122 61.356 clipbox
327.189732 203.560043 m
337.951161 203.560043 l
stroke
grestore
gsave
502.2 332.64 67.122 61.356 clipbox
404.313304 168.567698 m
404.313304 178.575578 l
stroke
grestore
gsave
502.2 332.64 67.122 61.356 clipbox
398.932589 168.567698 m
409.694018 168.567698 l
stroke
grestore
gsave
502.2 332.64 67.122 61.356 clipbox
398.932589 178.575578 m
409.694018 178.575578 l
stroke
grestore
gsave
502.2 332.64 67.122 61.356 clipbox
476.056161 141.023424 m
476.056161 150.613385 l
stroke
grestore
gsave
502.2 332.64 67.122 61.356 clipbox
470.675446 141.023424 m
481.436875 141.023424 l
stroke
grestore
gsave
502.2 332.64 67.122 61.356 clipbox
470.675446 150.613385 m
481.436875 150.613385 l
stroke
grestore
gsave
502.2 332.64 67.122 61.356 clipbox
547.799018 225.741358 m
547.799018 239.140863 l
stroke
grestore
gsave
502.2 332.64 67.122 61.356 clipbox
542.418304 225.741358 m
553.179732 225.741358 l
stroke
grestore
gsave
502.2 332.64 67.122 61.356 clipbox
542.418304 239.140863 m
553.179732 239.140863 l
stroke
grestore
1.250 setlinewidth
0 setlinejoin
2 setlinecap
1.000 setgray
gsave
67.121875 61.35625 m
67.121875 393.99625 l
stroke
grestore
gsave
569.321875 61.35625 m
569.321875 393.99625 l
stroke
grestore
gsave
67.121875 61.35625 m
569.321875 61.35625 l
stroke
grestore
gsave
67.121875 393.99625 m
569.321875 393.99625 l
stroke
grestore
1.000 setlinewidth
0 setlinecap
0.800 setgray
gsave
353.3675 288.440625 m
555.461875 288.440625 l
558.101875 288.440625 559.421875 289.760625 559.421875 292.400625 c
559.421875 380.13625 l
559.421875 382.77625 558.101875 384.09625 555.461875 384.09625 c
353.3675 384.09625 l
350.7275 384.09625 349.4075 382.77625 349.4075 380.13625 c
349.4075 292.400625 l
349.4075 289.760625 350.7275 288.440625 353.3675 288.440625 c
cl
gsave
0.918 0.918 0.949 setrgbcolor
fill
grestore
stroke
grestore
0.150 setgray
gsave

428.445938 359.457500 translate
0.000000 rotate
0.000000 0 m /T glyphshow
10.084412 0 m /r glyphshow
18.975159 0 m /a glyphshow
32.226807 0 m /i glyphshow
38.234924 0 m /n glyphshow
grestore
1.000 setgray
gsave
357.3275 329.77625 m
396.9275 329.77625 l
396.9275 343.63625 l
357.3275 343.63625 l
cl
gsave
0.081 0.570 0.570 setrgbcolor
fill
grestore
stroke
grestore
0.150 setgray
/DejaVuSans 19.800 selectfont
gsave

412.767500 329.776250 translate
0.000000 rotate
0.000000 0 m /one glyphshow
12.565552 0 m /zero glyphshow
25.131104 0 m /zero glyphshow
37.696655 0 m /percent glyphshow
56.463013 0 m /space glyphshow
62.740967 0 m /o glyphshow
74.824341 0 m /v glyphshow
86.512329 0 m /e glyphshow
98.663208 0 m /r glyphshow
106.783081 0 m /l glyphshow
112.270264 0 m /a glyphshow
124.372925 0 m /p glyphshow
grestore
1.000 setgray
gsave
357.3275 300.516875 m
396.9275 300.516875 l
396.9275 314.376875 l
357.3275 314.376875 l
cl
gsave
0.824 0.715 0.145 setrgbcolor
fill
grestore
stroke
grestore
0.150 setgray
gsave

412.767500 300.516875 translate
0.000000 rotate
0.000000 0 m /M glyphshow
17.040161 0 m /i glyphshow
22.527344 0 m /x glyphshow
33.590332 0 m /e glyphshow
45.741211 0 m /d glyphshow
58.277832 0 m /space glyphshow
64.555786 0 m /o glyphshow
76.639160 0 m /v glyphshow
88.327148 0 m /e glyphshow
100.478027 0 m /r glyphshow
108.597900 0 m /l glyphshow
114.085083 0 m /a glyphshow
126.187744 0 m /p glyphshow
grestore

end
showpage
