%!PS-Adobe-3.0 EPSF-3.0
%%Title: mix_and_100_pesq.eps
%%Creator: Matplotlib v3.4.2, https://matplotlib.org/
%%CreationDate: Sun Jun 20 11:30:58 2021
%%Orientation: portrait
%%BoundingBox: 14 195 598 597
%%HiResBoundingBox: 14.598438 195.401875 597.401563 596.598125
%%EndComments
%%BeginProlog
/mpldict 11 dict def
mpldict begin
/_d { bind def } bind def
/m { moveto } _d
/l { lineto } _d
/r { rlineto } _d
/c { curveto } _d
/cl { closepath } _d
/ce { closepath eofill } _d
/box {
      m
      1 index 0 r
      0 exch r
      neg 0 r
      cl
    } _d
/clipbox {
      box
      clip
      newpath
    } _d
/sc { setcachedevice } _d
%!PS-Adobe-3.0 Resource-Font
%%Creator: Converted from TrueType to Type 3 by Matplotlib.
10 dict begin
/FontName /DejaVuSans def
/PaintType 0 def
/FontMatrix [0.00048828125 0 0 0.00048828125 0 0] def
/FontBBox [-2090 -948 3673 2524] def
/FontType 3 def
/Encoding [/space /percent /parenleft /parenright /period /zero /one /two /four /six /eight /E /M /O /P /Q /S /T /a /d /e /f /i /l /n /o /p /r /s /t /v /x] def
/CharStrings 33 dict dup begin
/.notdef 0 def
/space{651 0 0 0 0 0 sc
ce} _d
/percent{1946 0 113 -29 1833 1520 sc
1489 657 m
1431 657 1385 632 1352 583 c
1319 534 1303 465 1303 377 c
1303 290 1319 222 1352 172 c
1385 123 1431 98 1489 98 c
1546 98 1590 123 1623 172 c
1656 222 1673 290 1673 377 c
1673 464 1656 533 1623 582 c
1590 632 1546 657 1489 657 c

1489 784 m
1594 784 1678 747 1740 674 c
1802 601 1833 502 1833 377 c
1833 252 1802 153 1739 80 c
1677 7 1594 -29 1489 -29 c
1382 -29 1298 7 1236 80 c
1174 153 1143 252 1143 377 c
1143 502 1174 601 1236 674 c
1299 747 1383 784 1489 784 c

457 1393 m
400 1393 354 1368 321 1318 c
288 1269 272 1201 272 1114 c
272 1026 288 957 321 908 c
354 859 399 834 457 834 c
515 834 560 859 593 908 c
626 957 643 1026 643 1114 c
643 1200 626 1268 593 1318 c
560 1368 514 1393 457 1393 c

1360 1520 m
1520 1520 l
586 -29 l
426 -29 l
1360 1520 l

457 1520 m
562 1520 646 1483 709 1410 c
772 1337 803 1239 803 1114 c
803 988 772 889 709 816 c
647 743 563 707 457 707 c
351 707 267 743 205 816 c
144 889 113 989 113 1114 c
113 1238 144 1337 206 1410 c
268 1483 352 1520 457 1520 c

ce} _d
/parenleft{799 0 176 -270 635 1554 sc
635 1554 m
546 1401 479 1249 436 1099 c
393 949 371 797 371 643 c
371 489 393 336 436 185 c
480 34 546 -117 635 -270 c
475 -270 l
375 -113 300 41 250 192 c
201 343 176 494 176 643 c
176 792 201 941 250 1092 c
299 1243 374 1397 475 1554 c
635 1554 l

ce} _d
/parenright{799 0 164 -270 623 1554 sc
164 1554 m
324 1554 l
424 1397 499 1243 548 1092 c
598 941 623 792 623 643 c
623 494 598 343 548 192 c
499 41 424 -113 324 -270 c
164 -270 l
253 -117 319 34 362 185 c
406 336 428 489 428 643 c
428 797 406 949 362 1099 c
319 1249 253 1401 164 1554 c

ce} _d
/period{651 0 219 0 430 254 sc
219 254 m
430 254 l
430 0 l
219 0 l
219 254 l

ce} _d
/zero{1303 0 135 -29 1167 1520 sc
651 1360 m
547 1360 469 1309 416 1206 c
364 1104 338 950 338 745 c
338 540 364 387 416 284 c
469 182 547 131 651 131 c
756 131 834 182 886 284 c
939 387 965 540 965 745 c
965 950 939 1104 886 1206 c
834 1309 756 1360 651 1360 c

651 1520 m
818 1520 946 1454 1034 1321 c
1123 1189 1167 997 1167 745 c
1167 494 1123 302 1034 169 c
946 37 818 -29 651 -29 c
484 -29 356 37 267 169 c
179 302 135 494 135 745 c
135 997 179 1189 267 1321 c
356 1454 484 1520 651 1520 c

ce} _d
/one{1303 0 225 0 1114 1493 sc
254 170 m
584 170 l
584 1309 l
225 1237 l
225 1421 l
582 1493 l
784 1493 l
784 170 l
1114 170 l
1114 0 l
254 0 l
254 170 l

ce} _d
/two{1303 0 150 0 1098 1520 sc
393 170 m
1098 170 l
1098 0 l
150 0 l
150 170 l
227 249 331 356 463 489 c
596 623 679 709 713 748 c
778 821 823 882 848 932 c
874 983 887 1032 887 1081 c
887 1160 859 1225 803 1275 c
748 1325 675 1350 586 1350 c
523 1350 456 1339 385 1317 c
315 1295 240 1262 160 1217 c
160 1421 l
241 1454 317 1478 388 1495 c
459 1512 523 1520 582 1520 c
737 1520 860 1481 952 1404 c
1044 1327 1090 1223 1090 1094 c
1090 1033 1078 974 1055 919 c
1032 864 991 800 930 725 c
913 706 860 650 771 557 c
682 465 556 336 393 170 c

ce} _d
/four{1303 0 100 0 1188 1493 sc
774 1317 m
264 520 l
774 520 l
774 1317 l

721 1493 m
975 1493 l
975 520 l
1188 520 l
1188 352 l
975 352 l
975 0 l
774 0 l
774 352 l
100 352 l
100 547 l
721 1493 l

ce} _d
/six{1303 0 143 -29 1174 1520 sc
676 827 m
585 827 513 796 460 734 c
407 672 381 587 381 479 c
381 372 407 287 460 224 c
513 162 585 131 676 131 c
767 131 838 162 891 224 c
944 287 971 372 971 479 c
971 587 944 672 891 734 c
838 796 767 827 676 827 c

1077 1460 m
1077 1276 l
1026 1300 975 1318 923 1331 c
872 1344 821 1350 770 1350 c
637 1350 535 1305 464 1215 c
394 1125 354 989 344 807 c
383 865 433 909 492 940 c
551 971 617 987 688 987 c
838 987 956 941 1043 850 c
1130 759 1174 636 1174 479 c
1174 326 1129 203 1038 110 c
947 17 827 -29 676 -29 c
503 -29 371 37 280 169 c
189 302 143 494 143 745 c
143 981 199 1169 311 1309 c
423 1450 573 1520 762 1520 c
813 1520 864 1515 915 1505 c
967 1495 1021 1480 1077 1460 c

ce} _d
/eight{1303 0 139 -29 1163 1520 sc
651 709 m
555 709 479 683 424 632 c
369 581 342 510 342 420 c
342 330 369 259 424 208 c
479 157 555 131 651 131 c
747 131 823 157 878 208 c
933 260 961 331 961 420 c
961 510 933 581 878 632 c
823 683 748 709 651 709 c

449 795 m
362 816 295 857 246 916 c
198 975 174 1048 174 1133 c
174 1252 216 1347 301 1416 c
386 1485 503 1520 651 1520 c
800 1520 916 1485 1001 1416 c
1086 1347 1128 1252 1128 1133 c
1128 1048 1104 975 1055 916 c
1007 857 940 816 854 795 c
951 772 1027 728 1081 662 c
1136 596 1163 515 1163 420 c
1163 275 1119 164 1030 87 c
942 10 816 -29 651 -29 c
486 -29 360 10 271 87 c
183 164 139 275 139 420 c
139 515 166 596 221 662 c
276 728 352 772 449 795 c

375 1114 m
375 1037 399 976 447 933 c
496 890 564 868 651 868 c
738 868 805 890 854 933 c
903 976 928 1037 928 1114 c
928 1191 903 1252 854 1295 c
805 1338 738 1360 651 1360 c
564 1360 496 1338 447 1295 c
399 1252 375 1191 375 1114 c

ce} _d
/E{1294 0 201 0 1163 1493 sc
201 1493 m
1145 1493 l
1145 1323 l
403 1323 l
403 881 l
1114 881 l
1114 711 l
403 711 l
403 170 l
1163 170 l
1163 0 l
201 0 l
201 1493 l

ce} _d
/M{1767 0 201 0 1567 1493 sc
201 1493 m
502 1493 l
883 477 l
1266 1493 l
1567 1493 l
1567 0 l
1370 0 l
1370 1311 l
985 287 l
782 287 l
397 1311 l
397 0 l
201 0 l
201 1493 l

ce} _d
/O{1612 0 115 -29 1497 1520 sc
807 1356 m
660 1356 544 1301 457 1192 c
371 1083 328 934 328 745 c
328 557 371 408 457 299 c
544 190 660 135 807 135 c
954 135 1070 190 1155 299 c
1241 408 1284 557 1284 745 c
1284 934 1241 1083 1155 1192 c
1070 1301 954 1356 807 1356 c

807 1520 m
1016 1520 1184 1450 1309 1309 c
1434 1169 1497 981 1497 745 c
1497 510 1434 322 1309 181 c
1184 41 1016 -29 807 -29 c
597 -29 429 41 303 181 c
178 321 115 509 115 745 c
115 981 178 1169 303 1309 c
429 1450 597 1520 807 1520 c

ce} _d
/P{1235 0 201 0 1165 1493 sc
403 1327 m
403 766 l
657 766 l
751 766 824 790 875 839 c
926 888 952 957 952 1047 c
952 1136 926 1205 875 1254 c
824 1303 751 1327 657 1327 c
403 1327 l

201 1493 m
657 1493 l
824 1493 951 1455 1036 1379 c
1122 1304 1165 1193 1165 1047 c
1165 900 1122 788 1036 713 c
951 638 824 600 657 600 c
403 600 l
403 0 l
201 0 l
201 1493 l

ce} _d
/Q{1612 0 115 -264 1497 1520 sc
807 1356 m
660 1356 544 1301 457 1192 c
371 1083 328 934 328 745 c
328 557 371 408 457 299 c
544 190 660 135 807 135 c
954 135 1070 190 1155 299 c
1241 408 1284 557 1284 745 c
1284 934 1241 1083 1155 1192 c
1070 1301 954 1356 807 1356 c

1090 27 m
1356 -264 l
1112 -264 l
891 -25 l
869 -26 852 -27 840 -28 c
829 -29 818 -29 807 -29 c
597 -29 429 41 303 181 c
178 322 115 510 115 745 c
115 981 178 1169 303 1309 c
429 1450 597 1520 807 1520 c
1016 1520 1184 1450 1309 1309 c
1434 1169 1497 981 1497 745 c
1497 572 1462 423 1392 300 c
1323 177 1222 86 1090 27 c

ce} _d
/S{1300 0 135 -29 1186 1520 sc
1096 1444 m
1096 1247 l
1019 1284 947 1311 879 1329 c
811 1347 745 1356 682 1356 c
572 1356 487 1335 427 1292 c
368 1249 338 1189 338 1110 c
338 1044 358 994 397 960 c
437 927 512 900 623 879 c
745 854 l
896 825 1007 775 1078 702 c
1150 630 1186 533 1186 412 c
1186 267 1137 158 1040 83 c
943 8 801 -29 614 -29 c
543 -29 468 -21 388 -5 c
309 11 226 35 141 66 c
141 274 l
223 228 303 193 382 170 c
461 147 538 135 614 135 c
729 135 818 158 881 203 c
944 248 975 313 975 397 c
975 470 952 528 907 569 c
862 610 789 641 686 662 c
563 686 l
412 716 303 763 236 827 c
169 891 135 980 135 1094 c
135 1226 181 1330 274 1406 c
367 1482 496 1520 659 1520 c
729 1520 800 1514 873 1501 c
946 1488 1020 1469 1096 1444 c

ce} _d
/T{1251 0 -6 0 1257 1493 sc
-6 1493 m
1257 1493 l
1257 1323 l
727 1323 l
727 0 l
524 0 l
524 1323 l
-6 1323 l
-6 1493 l

ce} _d
/a{1255 0 123 -29 1069 1147 sc
702 563 m
553 563 450 546 393 512 c
336 478 307 420 307 338 c
307 273 328 221 371 182 c
414 144 473 125 547 125 c
649 125 731 161 792 233 c
854 306 885 402 885 522 c
885 563 l
702 563 l

1069 639 m
1069 0 l
885 0 l
885 170 l
843 102 791 52 728 19 c
665 -13 589 -29 498 -29 c
383 -29 292 3 224 67 c
157 132 123 218 123 326 c
123 452 165 547 249 611 c
334 675 460 707 627 707 c
885 707 l
885 725 l
885 810 857 875 801 921 c
746 968 668 991 567 991 c
503 991 441 983 380 968 c
319 953 261 930 205 899 c
205 1069 l
272 1095 338 1114 401 1127 c
464 1140 526 1147 586 1147 c
748 1147 869 1105 949 1021 c
1029 937 1069 810 1069 639 c

ce} _d
/d{1300 0 113 -29 1114 1556 sc
930 950 m
930 1556 l
1114 1556 l
1114 0 l
930 0 l
930 168 l
891 101 842 52 783 19 c
724 -13 654 -29 571 -29 c
436 -29 325 25 240 133 c
155 241 113 383 113 559 c
113 735 155 877 240 985 c
325 1093 436 1147 571 1147 c
654 1147 724 1131 783 1098 c
842 1066 891 1017 930 950 c

303 559 m
303 424 331 317 386 240 c
442 163 519 125 616 125 c
713 125 790 163 846 240 c
902 317 930 424 930 559 c
930 694 902 800 846 877 c
790 954 713 993 616 993 c
519 993 442 954 386 877 c
331 800 303 694 303 559 c

ce} _d
/e{1260 0 113 -29 1151 1147 sc
1151 606 m
1151 516 l
305 516 l
313 389 351 293 419 226 c
488 160 583 127 705 127 c
776 127 844 136 910 153 c
977 170 1043 196 1108 231 c
1108 57 l
1042 29 974 8 905 -7 c
836 -22 765 -29 694 -29 c
515 -29 374 23 269 127 c
165 231 113 372 113 549 c
113 732 162 878 261 985 c
360 1093 494 1147 662 1147 c
813 1147 932 1098 1019 1001 c
1107 904 1151 773 1151 606 c

967 660 m
966 761 937 841 882 901 c
827 961 755 991 664 991 c
561 991 479 962 417 904 c
356 846 320 764 311 659 c
967 660 l

ce} _d
/f{721 0 47 0 760 1556 sc
760 1556 m
760 1403 l
584 1403 l
518 1403 472 1390 446 1363 c
421 1336 408 1288 408 1219 c
408 1120 l
711 1120 l
711 977 l
408 977 l
408 0 l
223 0 l
223 977 l
47 977 l
47 1120 l
223 1120 l
223 1198 l
223 1323 252 1413 310 1470 c
368 1527 460 1556 586 1556 c
760 1556 l

ce} _d
/i{569 0 193 0 377 1556 sc
193 1120 m
377 1120 l
377 0 l
193 0 l
193 1120 l

193 1556 m
377 1556 l
377 1323 l
193 1323 l
193 1556 l

ce} _d
/l{569 0 193 0 377 1556 sc
193 1556 m
377 1556 l
377 0 l
193 0 l
193 1556 l

ce} _d
/n{1298 0 186 0 1124 1147 sc
1124 676 m
1124 0 l
940 0 l
940 670 l
940 776 919 855 878 908 c
837 961 775 987 692 987 c
593 987 514 955 457 892 c
400 829 371 742 371 633 c
371 0 l
186 0 l
186 1120 l
371 1120 l
371 946 l
415 1013 467 1064 526 1097 c
586 1130 655 1147 733 1147 c
862 1147 959 1107 1025 1027 c
1091 948 1124 831 1124 676 c

ce} _d
/o{1253 0 113 -29 1141 1147 sc
627 991 m
528 991 450 952 393 875 c
336 798 307 693 307 559 c
307 425 335 319 392 242 c
449 165 528 127 627 127 c
725 127 803 166 860 243 c
917 320 946 426 946 559 c
946 692 917 797 860 874 c
803 952 725 991 627 991 c

627 1147 m
787 1147 913 1095 1004 991 c
1095 887 1141 743 1141 559 c
1141 376 1095 232 1004 127 c
913 23 787 -29 627 -29 c
466 -29 340 23 249 127 c
158 232 113 376 113 559 c
113 743 158 887 249 991 c
340 1095 466 1147 627 1147 c

ce} _d
/p{1300 0 186 -426 1188 1147 sc
371 168 m
371 -426 l
186 -426 l
186 1120 l
371 1120 l
371 950 l
410 1017 458 1066 517 1098 c
576 1131 647 1147 729 1147 c
865 1147 975 1093 1060 985 c
1145 877 1188 735 1188 559 c
1188 383 1145 241 1060 133 c
975 25 865 -29 729 -29 c
647 -29 576 -13 517 19 c
458 52 410 101 371 168 c

997 559 m
997 694 969 800 913 877 c
858 954 781 993 684 993 c
587 993 510 954 454 877 c
399 800 371 694 371 559 c
371 424 399 317 454 240 c
510 163 587 125 684 125 c
781 125 858 163 913 240 c
969 317 997 424 997 559 c

ce} _d
/r{842 0 186 0 842 1147 sc
842 948 m
821 960 799 969 774 974 c
750 980 723 983 694 983 c
590 983 510 949 454 881 c
399 814 371 717 371 590 c
371 0 l
186 0 l
186 1120 l
371 1120 l
371 946 l
410 1014 460 1064 522 1097 c
584 1130 659 1147 748 1147 c
761 1147 775 1146 790 1144 c
805 1143 822 1140 841 1137 c
842 948 l

ce} _d
/s{1067 0 111 -29 967 1147 sc
907 1087 m
907 913 l
855 940 801 960 745 973 c
689 986 631 993 571 993 c
480 993 411 979 365 951 c
320 923 297 881 297 825 c
297 782 313 749 346 724 c
379 700 444 677 543 655 c
606 641 l
737 613 829 573 884 522 c
939 471 967 400 967 309 c
967 205 926 123 843 62 c
761 1 648 -29 504 -29 c
444 -29 381 -23 316 -11 c
251 0 183 18 111 41 c
111 231 l
179 196 246 169 312 151 c
378 134 443 125 508 125 c
595 125 661 140 708 169 c
755 199 778 241 778 295 c
778 345 761 383 727 410 c
694 437 620 462 506 487 c
442 502 l
328 526 246 563 195 612 c
144 662 119 730 119 817 c
119 922 156 1004 231 1061 c
306 1118 412 1147 549 1147 c
617 1147 681 1142 741 1132 c
801 1122 856 1107 907 1087 c

ce} _d
/t{803 0 55 0 754 1438 sc
375 1438 m
375 1120 l
754 1120 l
754 977 l
375 977 l
375 369 l
375 278 387 219 412 193 c
437 167 488 154 565 154 c
754 154 l
754 0 l
565 0 l
423 0 325 26 271 79 c
217 132 190 229 190 369 c
190 977 l
55 977 l
55 1120 l
190 1120 l
190 1438 l
375 1438 l

ce} _d
/v{1212 0 61 0 1151 1120 sc
61 1120 m
256 1120 l
606 180 l
956 1120 l
1151 1120 l
731 0 l
481 0 l
61 1120 l

ce} _d
/x{1212 0 59 0 1145 1120 sc
1124 1120 m
719 575 l
1145 0 l
928 0 l
602 440 l
276 0 l
59 0 l
494 586 l
96 1120 l
313 1120 l
610 721 l
907 1120 l
1124 1120 l

ce} _d
end readonly def

/BuildGlyph {
 exch begin
 CharStrings exch
 2 copy known not {pop /.notdef} if
 true 3 1 roll get exec
 end
} _d

/BuildChar {
 1 index /Encoding get exch get
 1 index /BuildGlyph get exec
} _d

FontName currentdict end definefont pop
end
%%EndProlog
mpldict begin
14.598 195.402 translate
582.803 401.196 0 0 clipbox
gsave
0 0 m
582.803125 0 l
582.803125 401.19625 l
0 401.19625 l
cl
1.000 setgray
fill
grestore
gsave
73.403125 61.35625 m
575.603125 61.35625 l
575.603125 393.99625 l
73.403125 393.99625 l
cl
0.918 0.918 0.949 setrgbcolor
fill
grestore
0.150 setgray
/DejaVuSans 19.800 selectfont
gsave

102.993304 36.653125 translate
0.000000 rotate
0.000000 0 m /zero glyphshow
grestore
gsave

168.454911 36.653125 translate
0.000000 rotate
0.000000 0 m /two glyphshow
12.565552 0 m /zero glyphshow
grestore
gsave

240.197768 36.653125 translate
0.000000 rotate
0.000000 0 m /four glyphshow
12.565552 0 m /zero glyphshow
grestore
gsave

311.940625 36.653125 translate
0.000000 rotate
0.000000 0 m /six glyphshow
12.565552 0 m /zero glyphshow
grestore
gsave

383.683482 36.653125 translate
0.000000 rotate
0.000000 0 m /eight glyphshow
12.565552 0 m /zero glyphshow
grestore
gsave

449.145089 36.653125 translate
0.000000 rotate
0.000000 0 m /one glyphshow
12.565552 0 m /zero glyphshow
25.131104 0 m /zero glyphshow
grestore
gsave

522.622321 36.653125 translate
0.000000 rotate
0.000000 0 m /M glyphshow
17.040161 0 m /i glyphshow
22.527344 0 m /x glyphshow
grestore
/DejaVuSans 21.600 selectfont
gsave

173.432813 11.778125 translate
0.000000 rotate
0.000000 0 m /O glyphshow
17.021240 0 m /v glyphshow
29.818848 0 m /e glyphshow
43.123291 0 m /r glyphshow
52.014038 0 m /l glyphshow
58.022156 0 m /a glyphshow
71.273804 0 m /p glyphshow
85.000610 0 m /space glyphshow
91.874573 0 m /r glyphshow
100.765320 0 m /a glyphshow
114.016968 0 m /t glyphshow
122.495911 0 m /i glyphshow
128.504028 0 m /o glyphshow
141.734558 0 m /space glyphshow
148.608521 0 m /o glyphshow
161.839050 0 m /f glyphshow
169.452148 0 m /space glyphshow
176.326111 0 m /t glyphshow
184.805054 0 m /e glyphshow
198.109497 0 m /s glyphshow
209.376038 0 m /t glyphshow
217.854980 0 m /space glyphshow
224.728943 0 m /s glyphshow
235.995483 0 m /e glyphshow
249.299927 0 m /t glyphshow
257.778870 0 m /space glyphshow
264.652832 0 m /parenleft glyphshow
273.089539 0 m /percent glyphshow
293.637512 0 m /parenright glyphshow
grestore
1.000 setlinewidth
1 setlinejoin
1 setlinecap
[] 0 setdash
1.000 setgray
gsave
502.2 332.64 73.403 61.356 clipbox
73.403125 93.654582 m
575.603125 93.654582 l
stroke
grestore
0.150 setgray
/DejaVuSans 19.800 selectfont
gsave

32.496875 86.053020 translate
0.000000 rotate
0.000000 0 m /one glyphshow
12.565552 0 m /period glyphshow
18.843506 0 m /six glyphshow
grestore
1.000 setgray
gsave
502.2 332.64 73.403 61.356 clipbox
73.403125 158.251247 m
575.603125 158.251247 l
stroke
grestore
0.150 setgray
gsave

32.496875 150.649685 translate
0.000000 rotate
0.000000 0 m /one glyphshow
12.565552 0 m /period glyphshow
18.843506 0 m /eight glyphshow
grestore
1.000 setgray
gsave
502.2 332.64 73.403 61.356 clipbox
73.403125 222.847912 m
575.603125 222.847912 l
stroke
grestore
0.150 setgray
gsave

32.496875 215.246350 translate
0.000000 rotate
0.000000 0 m /two glyphshow
12.565552 0 m /period glyphshow
18.843506 0 m /zero glyphshow
grestore
1.000 setgray
gsave
502.2 332.64 73.403 61.356 clipbox
73.403125 287.444577 m
575.603125 287.444577 l
stroke
grestore
0.150 setgray
gsave

32.496875 279.843015 translate
0.000000 rotate
0.000000 0 m /two glyphshow
12.565552 0 m /period glyphshow
18.843506 0 m /two glyphshow
grestore
1.000 setgray
gsave
502.2 332.64 73.403 61.356 clipbox
73.403125 352.041242 m
575.603125 352.041242 l
stroke
grestore
0.150 setgray
gsave

32.496875 344.439680 translate
0.000000 rotate
0.000000 0 m /two glyphshow
12.565552 0 m /period glyphshow
18.843506 0 m /four glyphshow
grestore
/DejaVuSans 21.600 selectfont
gsave

23.918750 198.941875 translate
90.000000 rotate
0.000000 0 m /P glyphshow
13.040466 0 m /E glyphshow
26.703918 0 m /S glyphshow
40.430725 0 m /Q glyphshow
grestore
0 setlinejoin
0 setlinecap
1.000 setgray
gsave
502.2 332.64 73.403 61.356 clipbox
80.577411 -423.118737 m
109.274554 -423.118737 l
109.274554 312.341143 l
80.577411 312.341143 l
cl
gsave
0.081 0.570 0.570 setrgbcolor
fill
grestore
stroke
grestore
gsave
502.2 332.64 73.403 61.356 clipbox
152.320268 -423.118737 m
181.017411 -423.118737 l
181.017411 276.338435 l
152.320268 276.338435 l
cl
gsave
0.081 0.570 0.570 setrgbcolor
fill
grestore
stroke
grestore
gsave
502.2 332.64 73.403 61.356 clipbox
224.063125 -423.118737 m
252.760268 -423.118737 l
252.760268 241.570072 l
224.063125 241.570072 l
cl
gsave
0.081 0.570 0.570 setrgbcolor
fill
grestore
stroke
grestore
gsave
502.2 332.64 73.403 61.356 clipbox
295.805982 -423.118737 m
324.503125 -423.118737 l
324.503125 219.237391 l
295.805982 219.237391 l
cl
gsave
0.081 0.570 0.570 setrgbcolor
fill
grestore
stroke
grestore
gsave
502.2 332.64 73.403 61.356 clipbox
367.548839 -423.118737 m
396.245982 -423.118737 l
396.245982 206.229053 l
367.548839 206.229053 l
cl
gsave
0.081 0.570 0.570 setrgbcolor
fill
grestore
stroke
grestore
gsave
502.2 332.64 73.403 61.356 clipbox
439.291696 -423.118737 m
467.988839 -423.118737 l
467.988839 198.81254 l
439.291696 198.81254 l
cl
gsave
0.081 0.570 0.570 setrgbcolor
fill
grestore
stroke
grestore
gsave
502.2 332.64 73.403 61.356 clipbox
511.034554 -423.118737 m
539.731696 -423.118737 l
539.731696 243.131574 l
511.034554 243.131574 l
cl
gsave
0.081 0.570 0.570 setrgbcolor
fill
grestore
stroke
grestore
gsave
502.2 332.64 73.403 61.356 clipbox
109.274554 -423.118737 m
137.971696 -423.118737 l
137.971696 350.396659 l
109.274554 350.396659 l
cl
gsave
0.824 0.715 0.145 setrgbcolor
fill
grestore
stroke
grestore
gsave
502.2 332.64 73.403 61.356 clipbox
181.017411 -423.118737 m
209.714554 -423.118737 l
209.714554 269.183921 l
181.017411 269.183921 l
cl
gsave
0.824 0.715 0.145 setrgbcolor
fill
grestore
stroke
grestore
gsave
502.2 332.64 73.403 61.356 clipbox
252.760268 -423.118737 m
281.457411 -423.118737 l
281.457411 211.167816 l
252.760268 211.167816 l
cl
gsave
0.824 0.715 0.145 setrgbcolor
fill
grestore
stroke
grestore
gsave
502.2 332.64 73.403 61.356 clipbox
324.503125 -423.118737 m
353.200268 -423.118737 l
353.200268 179.976975 l
324.503125 179.976975 l
cl
gsave
0.824 0.715 0.145 setrgbcolor
fill
grestore
stroke
grestore
gsave
502.2 332.64 73.403 61.356 clipbox
396.245982 -423.118737 m
424.943125 -423.118737 l
424.943125 163.964177 l
396.245982 163.964177 l
cl
gsave
0.824 0.715 0.145 setrgbcolor
fill
grestore
stroke
grestore
gsave
502.2 332.64 73.403 61.356 clipbox
467.988839 -423.118737 m
496.685982 -423.118737 l
496.685982 153.590827 l
467.988839 153.590827 l
cl
gsave
0.824 0.715 0.145 setrgbcolor
fill
grestore
stroke
grestore
gsave
502.2 332.64 73.403 61.356 clipbox
539.731696 -423.118737 m
568.428839 -423.118737 l
568.428839 221.930346 l
539.731696 221.930346 l
cl
gsave
0.824 0.715 0.145 setrgbcolor
fill
grestore
stroke
grestore
2.000 setlinewidth
1 setlinejoin
1 setlinecap
0.260 setgray
gsave
502.2 332.64 73.403 61.356 clipbox
94.925982 307.937559 m
94.925982 317.080262 l
stroke
grestore
gsave
502.2 332.64 73.403 61.356 clipbox
89.545268 307.937559 m
100.306696 307.937559 l
stroke
grestore
gsave
502.2 332.64 73.403 61.356 clipbox
89.545268 317.080262 m
100.306696 317.080262 l
stroke
grestore
gsave
502.2 332.64 73.403 61.356 clipbox
166.668839 272.413165 m
166.668839 280.194987 l
stroke
grestore
gsave
502.2 332.64 73.403 61.356 clipbox
161.288125 272.413165 m
172.049554 272.413165 l
stroke
grestore
gsave
502.2 332.64 73.403 61.356 clipbox
161.288125 280.194987 m
172.049554 280.194987 l
stroke
grestore
gsave
502.2 332.64 73.403 61.356 clipbox
238.411696 238.373849 m
238.411696 244.950068 l
stroke
grestore
gsave
502.2 332.64 73.403 61.356 clipbox
233.030982 238.373849 m
243.792411 238.373849 l
stroke
grestore
gsave
502.2 332.64 73.403 61.356 clipbox
233.030982 244.950068 m
243.792411 244.950068 l
stroke
grestore
gsave
502.2 332.64 73.403 61.356 clipbox
310.154554 216.233548 m
310.154554 222.25153 l
stroke
grestore
gsave
502.2 332.64 73.403 61.356 clipbox
304.773839 216.233548 m
315.535268 216.233548 l
stroke
grestore
gsave
502.2 332.64 73.403 61.356 clipbox
304.773839 222.25153 m
315.535268 222.25153 l
stroke
grestore
gsave
502.2 332.64 73.403 61.356 clipbox
381.897411 203.407042 m
381.897411 209.062634 l
stroke
grestore
gsave
502.2 332.64 73.403 61.356 clipbox
376.516696 203.407042 m
387.278125 203.407042 l
stroke
grestore
gsave
502.2 332.64 73.403 61.356 clipbox
376.516696 209.062634 m
387.278125 209.062634 l
stroke
grestore
gsave
502.2 332.64 73.403 61.356 clipbox
453.640268 195.975104 m
453.640268 201.701183 l
stroke
grestore
gsave
502.2 332.64 73.403 61.356 clipbox
448.259554 195.975104 m
459.020982 195.975104 l
stroke
grestore
gsave
502.2 332.64 73.403 61.356 clipbox
448.259554 201.701183 m
459.020982 201.701183 l
stroke
grestore
gsave
502.2 332.64 73.403 61.356 clipbox
525.383125 239.328415 m
525.383125 247.18956 l
stroke
grestore
gsave
502.2 332.64 73.403 61.356 clipbox
520.002411 239.328415 m
530.763839 239.328415 l
stroke
grestore
gsave
502.2 332.64 73.403 61.356 clipbox
520.002411 247.18956 m
530.763839 247.18956 l
stroke
grestore
gsave
502.2 332.64 73.403 61.356 clipbox
123.623125 345.947403 m
123.623125 355.086013 l
stroke
grestore
gsave
502.2 332.64 73.403 61.356 clipbox
118.242411 345.947403 m
129.003839 345.947403 l
stroke
grestore
gsave
502.2 332.64 73.403 61.356 clipbox
118.242411 355.086013 m
129.003839 355.086013 l
stroke
grestore
gsave
502.2 332.64 73.403 61.356 clipbox
195.365982 265.444899 m
195.365982 272.751637 l
stroke
grestore
gsave
502.2 332.64 73.403 61.356 clipbox
189.985268 265.444899 m
200.746696 265.444899 l
stroke
grestore
gsave
502.2 332.64 73.403 61.356 clipbox
189.985268 272.751637 m
200.746696 272.751637 l
stroke
grestore
gsave
502.2 332.64 73.403 61.356 clipbox
267.108839 208.200601 m
267.108839 214.410975 l
stroke
grestore
gsave
502.2 332.64 73.403 61.356 clipbox
261.728125 208.200601 m
272.489554 208.200601 l
stroke
grestore
gsave
502.2 332.64 73.403 61.356 clipbox
261.728125 214.410975 m
272.489554 214.410975 l
stroke
grestore
gsave
502.2 332.64 73.403 61.356 clipbox
338.851696 177.189727 m
338.851696 182.808245 l
stroke
grestore
gsave
502.2 332.64 73.403 61.356 clipbox
333.470982 177.189727 m
344.232411 177.189727 l
stroke
grestore
gsave
502.2 332.64 73.403 61.356 clipbox
333.470982 182.808245 m
344.232411 182.808245 l
stroke
grestore
gsave
502.2 332.64 73.403 61.356 clipbox
410.594554 161.35385 m
410.594554 166.89235 l
stroke
grestore
gsave
502.2 332.64 73.403 61.356 clipbox
405.213839 161.35385 m
415.975268 161.35385 l
stroke
grestore
gsave
502.2 332.64 73.403 61.356 clipbox
405.213839 166.89235 m
415.975268 166.89235 l
stroke
grestore
gsave
502.2 332.64 73.403 61.356 clipbox
482.337411 151.05703 m
482.337411 156.016467 l
stroke
grestore
gsave
502.2 332.64 73.403 61.356 clipbox
476.956696 151.05703 m
487.718125 151.05703 l
stroke
grestore
gsave
502.2 332.64 73.403 61.356 clipbox
476.956696 156.016467 m
487.718125 156.016467 l
stroke
grestore
gsave
502.2 332.64 73.403 61.356 clipbox
554.080268 217.809751 m
554.080268 225.91044 l
stroke
grestore
gsave
502.2 332.64 73.403 61.356 clipbox
548.699554 217.809751 m
559.460982 217.809751 l
stroke
grestore
gsave
502.2 332.64 73.403 61.356 clipbox
548.699554 225.91044 m
559.460982 225.91044 l
stroke
grestore
1.250 setlinewidth
0 setlinejoin
2 setlinecap
1.000 setgray
gsave
73.403125 61.35625 m
73.403125 393.99625 l
stroke
grestore
gsave
575.603125 61.35625 m
575.603125 393.99625 l
stroke
grestore
gsave
73.403125 61.35625 m
575.603125 61.35625 l
stroke
grestore
gsave
73.403125 393.99625 m
575.603125 393.99625 l
stroke
grestore
1.000 setlinewidth
0 setlinecap
0.800 setgray
gsave
359.64875 288.440625 m
561.743125 288.440625 l
564.383125 288.440625 565.703125 289.760625 565.703125 292.400625 c
565.703125 380.13625 l
565.703125 382.77625 564.383125 384.09625 561.743125 384.09625 c
359.64875 384.09625 l
357.00875 384.09625 355.68875 382.77625 355.68875 380.13625 c
355.68875 292.400625 l
355.68875 289.760625 357.00875 288.440625 359.64875 288.440625 c
cl
gsave
0.918 0.918 0.949 setrgbcolor
fill
grestore
stroke
grestore
0.150 setgray
gsave

434.727188 359.457500 translate
0.000000 rotate
0.000000 0 m /T glyphshow
10.084412 0 m /r glyphshow
18.975159 0 m /a glyphshow
32.226807 0 m /i glyphshow
38.234924 0 m /n glyphshow
grestore
1.000 setgray
gsave
363.60875 329.77625 m
403.20875 329.77625 l
403.20875 343.63625 l
363.60875 343.63625 l
cl
gsave
0.081 0.570 0.570 setrgbcolor
fill
grestore
stroke
grestore
0.150 setgray
/DejaVuSans 19.800 selectfont
gsave

419.048750 329.776250 translate
0.000000 rotate
0.000000 0 m /one glyphshow
12.565552 0 m /zero glyphshow
25.131104 0 m /zero glyphshow
37.696655 0 m /percent glyphshow
56.463013 0 m /space glyphshow
62.740967 0 m /o glyphshow
74.824341 0 m /v glyphshow
86.512329 0 m /e glyphshow
98.663208 0 m /r glyphshow
106.783081 0 m /l glyphshow
112.270264 0 m /a glyphshow
124.372925 0 m /p glyphshow
grestore
1.000 setgray
gsave
363.60875 300.516875 m
403.20875 300.516875 l
403.20875 314.376875 l
363.60875 314.376875 l
cl
gsave
0.824 0.715 0.145 setrgbcolor
fill
grestore
stroke
grestore
0.150 setgray
gsave

419.048750 300.516875 translate
0.000000 rotate
0.000000 0 m /M glyphshow
17.040161 0 m /i glyphshow
22.527344 0 m /x glyphshow
33.590332 0 m /e glyphshow
45.741211 0 m /d glyphshow
58.277832 0 m /space glyphshow
64.555786 0 m /o glyphshow
76.639160 0 m /v glyphshow
88.327148 0 m /e glyphshow
100.478027 0 m /r glyphshow
108.597900 0 m /l glyphshow
114.085083 0 m /a glyphshow
126.187744 0 m /p glyphshow
grestore

end
showpage
