{
"input_si_sdr": -2.0913368463516235,
"input_sdr": -1.9730101142630274,
"input_sir": 0.07945625002059203,
"input_sar": 5.266852133507365,
"input_stoi": 0.9014816466204842,
"input_pesq": 1.7859566807746887,
"si_sdr": 10.283675193786621,
"sdr": 11.009581499688718,
"sir": 23.21862265459234,
"sar": 11.327095479359247,
"stoi": 0.9538309616012289,
"pesq": 2.206428110599518,
"mix_path": "/dtu-compute/LibriMix/rmth/Fagprojekt194240/our_output_test/sparse_2_0.2/wav8000/mix_noisy/mix_0000859.wav"
}