{
"si_sdr": -1.3113912138779598,
"si_sdr_imp": 2.3546563418885023,
"sdr": -0.06716881663967682,
"sdr_imp": 3.4209163366959054,
"sir": 12.11180942771711,
"sir_imp": 12.012401776038478,
"sar": 2.8550570479498045,
"sar_imp": -0.14592017050814277,
"stoi": 0.6568108687023224,
"stoi_imp": -0.0626731192046063,
"pesq": 1.4590124863040217,
"pesq_imp": -0.06034751191705445
}