{
"input_si_sdr": -4.346444368362427,
"input_sdr": -4.286323237492558,
"input_sir": 0.20533865299284215,
"input_sar": 0.658558437379795,
"input_stoi": 0.637782193493805,
"input_pesq": 1.3678969144821167,
"si_sdr": 8.985099792480469,
"sdr": 9.442299782728732,
"sir": 24.43497950816219,
"sar": 9.598398650275623,
"stoi": 0.847366993959802,
"pesq": 1.9464524984359741,
"mix_path": "/dtu-compute/LibriMix/rmth/Fagprojekt194240/our_output_test/sparse_2_1/wav8000/mix_noisy/mix_0001246.wav"
}