{
"input_si_sdr": -5.887577533721924,
"input_sdr": -5.630873926748545,
"input_sir": 0.1851811625583255,
"input_sar": -0.2191922559748449,
"input_stoi": 0.6354187046254158,
"input_pesq": 1.3826416730880737,
"si_sdr": -2.9970316886901855,
"sdr": -2.373463621212095,
"sir": 1.7888774800358958,
"sar": 5.160963014261097,
"stoi": 0.6224402547244334,
"pesq": 1.4195395112037659,
"mix_path": "/dtu-compute/LibriMix/rmth/Fagprojekt194240/our_output_test/sparse_2_0.8/wav8000/mix_noisy/mix_0000709.wav"
}