{
"input_si_sdr": -4.356662750244141,
"input_sdr": -4.293890698070633,
"input_sir": -0.03483877926782397,
"input_sar": 1.0592138120274723,
"input_stoi": 0.7225546707459537,
"input_pesq": 1.5338993668556213,
"si_sdr": 8.267009019851685,
"sdr": 9.916500981367129,
"sir": 22.693607290367765,
"sar": 10.175491986084548,
"stoi": 0.8716536079225687,
"pesq": 2.1653043627738953,
"mix_path": "/dtu-compute/LibriMix/rmth/Fagprojekt194240/our_output_test/sparse_2_1/wav8000/mix_noisy/mix_0000852.wav"
}