{
"input_si_sdr": -3.53772833943367,
"input_sdr": -3.109287542538945,
"input_sir": 0.3199273111329908,
"input_sar": 3.3535179422711248,
"input_stoi": 0.7266397753109626,
"input_pesq": 1.5810593962669373,
"si_sdr": 10.354480266571045,
"sdr": 11.611034890080989,
"sir": 22.73992654857649,
"sar": 12.05017750207065,
"stoi": 0.89923165619113,
"pesq": 2.063689708709717,
"mix_path": "/dtu-compute/LibriMix/rmth/Fagprojekt194240/our_output_test/sparse_2_0.8/wav8000/mix_noisy/mix_0001215.wav"
}