{
"input_si_sdr": -2.846980094909668,
"input_sdr": -2.4790779242679486,
"input_sir": 0.20583845120901634,
"input_sar": 5.562862656847612,
"input_stoi": 0.603585215546069,
"input_pesq": 1.7279294729232788,
"si_sdr": 9.737248420715332,
"sdr": 10.465483105575204,
"sir": 21.84074223114846,
"sar": 10.830572652381107,
"stoi": 0.8561257129022601,
"pesq": 2.0782766342163086,
"mix_path": "/dtu-compute/LibriMix/rmth/Fagprojekt194240/our_output_test/sparse_2_0.6/wav8000/mix_noisy/mix_0002433.wav"
}