{
"input_si_sdr": -3.6090828478336334,
"input_sdr": -3.2080569880054126,
"input_sir": 0.4225398454721687,
"input_sar": 3.3142850730660616,
"input_stoi": 0.6448481663038246,
"input_pesq": 1.4683475494384766,
"si_sdr": 5.270318269729614,
"sdr": 6.390076333930352,
"sir": 14.18681582069172,
"sar": 8.497390261354392,
"stoi": 0.8080332925848492,
"pesq": 1.9934041500091553,
"mix_path": "/dtu-compute/LibriMix/rmth/Fagprojekt194240/our_output_test/sparse_2_0.8/wav8000/mix_noisy/mix_0000199.wav"
}