{
"input_si_sdr": -2.759510636329651,
"input_sdr": -2.7285967665855,
"input_sir": 0.01680661343417661,
"input_sar": 3.5959270893179704,
"input_stoi": 0.8753705811863971,
"input_pesq": 1.7902346849441528,
"si_sdr": 12.447468280792236,
"sdr": 13.130075808935798,
"sir": 29.05978774442905,
"sar": 13.271655785996337,
"stoi": 0.9268595284487653,
"pesq": 2.4028515815734863,
"mix_path": "/dtu-compute/LibriMix/rmth/Fagprojekt194240/our_output_test/SUM_2_mix/wav8000/mix_noisy/mix_0000517.wav"
}