{
"si_sdr": 5.596483198903889,
"si_sdr_imp": 9.024806148049997,
"sdr": 6.46186326974553,
"sdr_imp": 9.652372943322188,
"sir": 14.89078539759553,
"sir_imp": 14.718763320927424,
"sar": 7.875988353726717,
"sar_imp": 4.398406711049635,
"stoi": 0.7886464107545443,
"stoi_imp": 0.10191059739832489,
"pesq": 1.7161274331660967,
"pesq_imp": 0.2714227195419098
}