Mon Jun  7 14:58:17 2021       
+-----------------------------------------------------------------------------+
| NVIDIA-SMI 465.19.01    Driver Version: 465.19.01    CUDA Version: 11.3     |
|-------------------------------+----------------------+----------------------+
| GPU  Name        Persistence-M| Bus-Id        Disp.A | Volatile Uncorr. ECC |
| Fan  Temp  Perf  Pwr:Usage/Cap|         Memory-Usage | GPU-Util  Compute M. |
|                               |                      |               MIG M. |
|===============================+======================+======================|
|   0  NVIDIA Tesla V1...  On   | 00000000:16:00.0 Off |                    0 |
| N/A   42C    P0    45W / 300W |      0MiB / 32510MiB |      0%   E. Process |
|                               |                      |                  N/A |
+-------------------------------+----------------------+----------------------+
                                                                               
+-----------------------------------------------------------------------------+
| Processes:                                                                  |
|  GPU   GI   CI        PID   Type   Process name                  GPU Memory |
|        ID   ID                                                   Usage      |
|=============================================================================|
|  No running processes found                                                 |
+-----------------------------------------------------------------------------+
Results from the following experiment will be stored in exp/train_convtasnet_1mix
Stage 3 : Evaluation
Collecting test_annotations.csv from: ../test_annotations.csv
../data/our_output_test/sparse_2_mix
Here is the length of the test-set:  2994
Overall metrics :
{'sar': 9.77122841037797,
 'sar_imp': 7.094629858140824,
 'sdr': 8.696392246689577,
 'sdr_imp': 12.371866423614089,
 'si_sdr': 7.72373891559108,
 'si_sdr_imp': 11.56341196135983,
 'sir': 22.654368416524534,
 'sir_imp': 22.56918676257457,
 'stoi': 0.8475899803069837,
 'stoi_imp': 0.0965742160410582}

Don't forget to share your pretrained models at https://zenodo.org/communities/asteroid-models/! =)
You can directly use our CLI for that, run this: 
`asteroid-upload exp/train_convtasnet_1mix/publish_dir --uploader "Your name here"`

