Mon Jun  7 12:39:17 2021       
+-----------------------------------------------------------------------------+
| NVIDIA-SMI 465.19.01    Driver Version: 465.19.01    CUDA Version: 11.3     |
|-------------------------------+----------------------+----------------------+
| GPU  Name        Persistence-M| Bus-Id        Disp.A | Volatile Uncorr. ECC |
| Fan  Temp  Perf  Pwr:Usage/Cap|         Memory-Usage | GPU-Util  Compute M. |
|                               |                      |               MIG M. |
|===============================+======================+======================|
|   0  NVIDIA Tesla V1...  On   | 00000000:58:00.0 Off |                    0 |
| N/A   56C    P0    29W / 250W |      0MiB / 32510MiB |      0%   E. Process |
|                               |                      |                  N/A |
+-------------------------------+----------------------+----------------------+
                                                                               
+-----------------------------------------------------------------------------+
| Processes:                                                                  |
|  GPU   GI   CI        PID   Type   Process name                  GPU Memory |
|        ID   ID                                                   Usage      |
|=============================================================================|
|  No running processes found                                                 |
+-----------------------------------------------------------------------------+
Results from the following experiment will be stored in exp/train_convtasnet_10
Stage 3 : Evaluation
Collecting test_annotations.csv from: ../test_annotations.csv
../data/our_output_test/sparse_2_0
Here is the length of the test-set:  2998
Overall metrics :
{'sar': 8.990313393390004,
 'sar_imp': 7.459532640750727,
 'sdr': 7.004019427686276,
 'sdr_imp': 11.379619598067904,
 'si_sdr': 5.785739426532296,
 'si_sdr_imp': 10.253001506293483,
 'sir': 30.730613374428504,
 'sir_imp': 30.730613449576136,
 'stoi': 0.8461314732819566,
 'stoi_imp': -0.001741287923376734}

Don't forget to share your pretrained models at https://zenodo.org/communities/asteroid-models/! =)
You can directly use our CLI for that, run this: 
`asteroid-upload exp/train_convtasnet_10/publish_dir --uploader "Your name here"`

