Traceback (most recent call last):
  File "eval.py", line 207, in <module>
    main(arg_dic)
  File "eval.py", line 84, in main
    test_set = LibriMix(
  File "/dtu-compute/LibriMix/rmth/Fagprojekt194240/asteroid-env/lib/python3.8/site-packages/asteroid/data/librimix_dataset.py", line 60, in __init__
    md_file = [f for f in os.listdir(csv_dir) if "both" in f][0]
FileNotFoundError: [Errno 2] No such file or directory: '../data/our_output_test/sparse_2_2'
