{
"input_si_sdr": -3.1354514360427856,
"input_sdr": -2.8478793602143577,
"input_sir": 0.13496650012897282,
"input_sar": 3.3923853963933444,
"input_stoi": 0.7310375984562165,
"input_pesq": 1.4133376479148865,
"si_sdr": 8.652371406555176,
"sdr": 10.022592582434694,
"sir": 17.050659446613,
"sar": 11.076217776438922,
"stoi": 0.8533223769915339,
"pesq": 2.1804248094558716,
"mix_path": "/dtu-compute/LibriMix/rmth/Fagprojekt194240/our_output_test/sparse_2_1/wav8000/mix_noisy/mix_0001792.wav"
}