{
"input_si_sdr": -5.392303705215454,
"input_sdr": -5.296052240927472,
"input_sir": 0.05161213081690025,
"input_sar": -0.810643414603165,
"input_stoi": 0.6585768871361426,
"input_pesq": 1.3030451536178589,
"si_sdr": 3.7630069255828857,
"sdr": 4.4437115450740095,
"sir": 16.590874280004808,
"sar": 4.845727121048912,
"stoi": 0.611369099306234,
"pesq": 1.3090768456459045,
"mix_path": "/dtu-compute/LibriMix/rmth/Fagprojekt194240/our_output_test/sparse_2_0.4/wav8000/mix_noisy/mix_0002024.wav"
}