{
"si_sdr": 7.796448268793949,
"si_sdr_imp": 11.325311769412666,
"sdr": 8.653195966603883,
"sdr_imp": 11.97759829187232,
"sir": 19.521727845801472,
"sir_imp": 19.39116327559412,
"sar": 9.447772251457865,
"sar_imp": 6.174021063070441,
"stoi": 0.8294224247466977,
"stoi_imp": 0.1319720106782549,
"pesq": 1.8694089245128187,
"pesq_imp": 0.3959453481288653
}