{
"input_si_sdr": -1.7199142426252365,
"input_sdr": -1.5128683311625215,
"input_sir": -0.07162729278988589,
"input_sar": 7.177017303276245,
"input_stoi": 0.7388140823311391,
"input_pesq": 1.3202409148216248,
"si_sdr": 11.296612739562988,
"sdr": 12.071476105615456,
"sir": 21.940827298545557,
"sar": 12.574028225635248,
"stoi": 0.9376748471207186,
"pesq": 2.0852105617523193,
"mix_path": "/dtu-compute/LibriMix/rmth/Fagprojekt194240/our_output_test/sparse_2_1/wav8000/mix_noisy/mix_0000280.wav"
}