{
"input_si_sdr": -3.604690045118332,
"input_sdr": -3.4196096823184083,
"input_sir": 0.035081813366957704,
"input_sar": 2.906917617674643,
"input_stoi": 0.6996188533661708,
"input_pesq": 1.5980010032653809,
"si_sdr": 11.631122589111328,
"sdr": 12.982743474459875,
"sir": 25.486785041161376,
"sar": 13.248080004827646,
"stoi": 0.8770015622539477,
"pesq": 2.301644802093506,
"mix_path": "/dtu-compute/LibriMix/rmth/Fagprojekt194240/our_output_test/sparse_2_0.4/wav8000/mix_noisy/mix_0001523.wav"
}