{
"input_si_sdr": -2.5297791957855225,
"input_sdr": -2.489249170853245,
"input_sir": 0.014881151803015746,
"input_sar": 4.191261439468114,
"input_stoi": 0.7193985050538482,
"input_pesq": 1.8229093551635742,
"si_sdr": 3.553481101989746,
"sdr": 4.0221471146165975,
"sir": 19.216631092452293,
"sar": 4.820329097130884,
"stoi": 0.7007697979140222,
"pesq": 1.645020604133606,
"mix_path": "/dtu-compute/LibriMix/rmth/Fagprojekt194240/our_output_test/sparse_2_0.4/wav8000/mix_noisy/mix_0002111.wav"
}