{
"input_si_sdr": -3.210994742810726,
"input_sdr": -2.9823050379538913,
"input_sir": 0.3046173521500193,
"input_sar": 3.4899914488693966,
"input_stoi": 0.7028271223658442,
"input_pesq": 1.4311493039131165,
"si_sdr": 9.576160669326782,
"sdr": 10.06762507028089,
"sir": 19.719123744528638,
"sar": 10.61730856643734,
"stoi": 0.8331739114852905,
"pesq": 2.016068696975708,
"mix_path": "/dtu-compute/LibriMix/rmth/Fagprojekt194240/our_output_test/sparse_2_0.6/wav8000/mix_noisy/mix_0001904.wav"
}