{
"input_si_sdr": -3.179189443588257,
"input_sdr": -3.141426300991027,
"input_sir": 0.014506866352685721,
"input_sar": 2.7588068824018768,
"input_stoi": 0.7855018272775344,
"input_pesq": 1.6320586800575256,
"si_sdr": 12.8394455909729,
"sdr": 13.724926942956131,
"sir": 34.79418901611716,
"sar": 13.763897450536636,
"stoi": 0.9053258965299278,
"pesq": 2.796054482460022,
"mix_path": "/dtu-compute/LibriMix/rmth/Fagprojekt194240/our_output_test/SUM_2_mix/wav8000/mix_noisy/mix_0000751.wav"
}