{
"si_sdr": 6.44332844269235,
"si_sdr_imp": 9.871651391838457,
"sdr": 7.288256534044003,
"sdr_imp": 10.478766207620662,
"sir": 16.07053281737566,
"sir_imp": 15.898510740707557,
"sar": 8.493348550022834,
"sar_imp": 5.015766907345751,
"stoi": 0.8108755558290291,
"stoi_imp": 0.1241397424728097,
"pesq": 1.7855707097443205,
"pesq_imp": 0.34086105338806627
}