{
"input_si_sdr": -2.118328809738159,
"input_sdr": -1.8491317496054025,
"input_sir": 0.302713751607435,
"input_sar": 5.1389793141281555,
"input_stoi": 0.7854353817896599,
"input_pesq": 1.747926115989685,
"si_sdr": 8.28133511543274,
"sdr": 9.194746107380832,
"sir": 16.222239577555833,
"sar": 10.486063909469372,
"stoi": 0.877272893940322,
"pesq": 2.205662727355957,
"mix_path": "/dtu-compute/LibriMix/rmth/Fagprojekt194240/our_output_test/sparse_2_1/wav8000/mix_noisy/mix_0001443.wav"
}