{
"input_si_sdr": -5.933431029319763,
"input_sdr": -5.847327144459433,
"input_sir": 2.6812399411824117e-06,
"input_sar": -1.016963203879451,
"input_stoi": 0.7740070781899611,
"input_pesq": 1.4238908290863037,
"si_sdr": 8.367352485656738,
"sdr": 9.216417448158087,
"sir": 59.482065561385106,
"sar": 9.216475846561629,
"stoi": 0.8600686887039031,
"pesq": 1.9363721013069153,
"mix_path": "/dtu-compute/LibriMix/rmth/Fagprojekt194240/our_output_test/sparse_2_0/wav8000/mix_noisy/mix_0000083.wav"
}