{
"input_si_sdr": -5.277366280555725,
"input_sdr": -5.040213467711228,
"input_sir": -0.12096413169630615,
"input_sar": 0.6672030919854597,
"input_stoi": 0.6439712483455153,
"input_pesq": 1.5736755728721619,
"si_sdr": 5.958532333374023,
"sdr": 6.694246451990038,
"sir": 13.065339530535638,
"sar": 8.859653582448324,
"stoi": 0.8154593849834115,
"pesq": 1.844714879989624,
"mix_path": "/dtu-compute/LibriMix/rmth/Fagprojekt194240/our_output_test/sparse_2_0.8/wav8000/mix_noisy/mix_0001355.wav"
}