{
"input_si_sdr": -4.1257346868515015,
"input_sdr": -3.923283685634642,
"input_sir": 0.06424383160689806,
"input_sar": 1.4823818934356539,
"input_stoi": 0.7746324592689897,
"input_pesq": 1.6277605891227722,
"si_sdr": 8.411781311035156,
"sdr": 9.12531382848555,
"sir": 22.149247035175343,
"sar": 9.410134131041874,
"stoi": 0.8873146439601874,
"pesq": 1.886217474937439,
"mix_path": "/dtu-compute/LibriMix/rmth/Fagprojekt194240/our_output_test/sparse_2_0.4/wav8000/mix_noisy/mix_0000456.wav"
}