{
"input_si_sdr": -3.25593364238739,
"input_sdr": -2.9261913249564646,
"input_sir": 0.2834290121316234,
"input_sar": 2.7653029500184396,
"input_stoi": 0.6748784732695894,
"input_pesq": 1.3256781697273254,
"si_sdr": 7.455223083496094,
"sdr": 9.289244856199073,
"sir": 19.436523323637715,
"sar": 9.783128969819927,
"stoi": 0.8318840860453119,
"pesq": 1.840747356414795,
"mix_path": "/dtu-compute/LibriMix/rmth/Fagprojekt194240/our_output_test/sparse_2_0.8/wav8000/mix_noisy/mix_0001809.wav"
}