{
"input_si_sdr": -3.220052123069763,
"input_sdr": -3.1690141784812296,
"input_sir": 0.0010081379781191613,
"input_sar": 2.825417188041097,
"input_stoi": 0.809035617077476,
"input_pesq": 1.6238735914230347,
"si_sdr": 11.43010139465332,
"sdr": 11.942621581472132,
"sir": 25.790572947626586,
"sar": 12.15840759471543,
"stoi": 0.9173962971553127,
"pesq": 2.195778727531433,
"mix_path": "/dtu-compute/LibriMix/rmth/Fagprojekt194240/our_output_test/sparse_2_0.4/wav8000/mix_noisy/mix_0001822.wav"
}