{
"input_si_sdr": -4.460438013076782,
"input_sdr": -4.315954534556733,
"input_sir": -0.054036120090756645,
"input_sar": 1.1491553339376757,
"input_stoi": 0.7652580317672544,
"input_pesq": 1.737885296344757,
"si_sdr": 10.300172805786133,
"sdr": 11.36740825656985,
"sir": 26.03661718278013,
"sar": 11.52972254803365,
"stoi": 0.8890559789572863,
"pesq": 2.562284827232361,
"mix_path": "/dtu-compute/LibriMix/rmth/Fagprojekt194240/our_output_test/sparse_2_0.2/wav8000/mix_noisy/mix_0000509.wav"
}