{
"si_sdr": 5.323151480934779,
"si_sdr_imp": 9.790413560695967,
"sdr": 6.706949913500742,
"sdr_imp": 11.082550083882369,
"sir": 31.75984739473109,
"sir_imp": 31.759847469878714,
"sar": 8.892062389114535,
"sar_imp": 7.361281636475258,
"stoi": 0.8340933578800586,
"stoi_imp": -0.0137794033252747,
"pesq": 2.275175094087574,
"pesq_imp": 0.4439801193023221
}