{
"input_si_sdr": -3.47495037317276,
"input_sdr": -3.3160143860306985,
"input_sir": 0.14816278286276807,
"input_sar": 3.0349890368420542,
"input_stoi": 0.6517518620120668,
"input_pesq": 1.3608327507972717,
"si_sdr": 9.122513055801392,
"sdr": 9.47704967102354,
"sir": 23.556103686840586,
"sar": 9.690380652605686,
"stoi": 0.8435198159620212,
"pesq": 1.8235358595848083,
"mix_path": "/dtu-compute/LibriMix/rmth/Fagprojekt194240/our_output_test/sparse_2_1/wav8000/mix_noisy/mix_0002653.wav"
}