{
"input_si_sdr": -4.830531597137451,
"input_sdr": -4.720445388528544,
"input_sir": 0.04847368436539751,
"input_sar": 0.05068005192636899,
"input_stoi": 0.762099262465919,
"input_pesq": 1.7314786911010742,
"si_sdr": -0.5820289254188538,
"sdr": 1.22362559855204,
"sir": 13.9355518353561,
"sar": 4.62660744620019,
"stoi": 0.8581826988041086,
"pesq": 1.9597488045692444,
"mix_path": "/dtu-compute/LibriMix/rmth/Fagprojekt194240/our_output_test/sparse_2_0.2/wav8000/mix_noisy/mix_0002907.wav"
}