{
"input_si_sdr": -4.783156871795654,
"input_sdr": -4.602064362182881,
"input_sir": 0.06020362394447146,
"input_sar": 0.19755039074354735,
"input_stoi": 0.7044801866673178,
"input_pesq": 1.2485750317573547,
"si_sdr": 8.537338256835938,
"sdr": 9.210183854614924,
"sir": 24.301725442163736,
"sar": 9.403889028425702,
"stoi": 0.8666589676497611,
"pesq": 1.899215579032898,
"mix_path": "/dtu-compute/LibriMix/rmth/Fagprojekt194240/our_output_test/sparse_2_0.8/wav8000/mix_noisy/mix_0002022.wav"
}