{
"input_si_sdr": -1.2434698231518269,
"input_sdr": -1.207204561378671,
"input_sir": 0.0472087605086664,
"input_sar": 7.897299523705719,
"input_stoi": 0.7810223875384041,
"input_pesq": 1.6398524045944214,
"si_sdr": 12.867392539978027,
"sdr": 13.209142838287761,
"sir": 26.845398086671942,
"sar": 13.41680991152667,
"stoi": 0.9225418910327192,
"pesq": 2.4083060026168823,
"mix_path": "/dtu-compute/LibriMix/rmth/Fagprojekt194240/our_output_test/sparse_2_0.6/wav8000/mix_noisy/mix_0000880.wav"
}