{
"input_si_sdr": -1.3486123085021973,
"input_sdr": -1.167675152564581,
"input_sir": 0.11182242522420194,
"input_sar": 8.015204761306915,
"input_stoi": 0.7881094516662078,
"input_pesq": 1.507421851158142,
"si_sdr": 9.375683784484863,
"sdr": 10.270282153233566,
"sir": 20.732661097858184,
"sar": 10.87285739540938,
"stoi": 0.9024254926314959,
"pesq": 2.0905758142471313,
"mix_path": "/dtu-compute/LibriMix/rmth/Fagprojekt194240/our_output_test/sparse_2_1/wav8000/mix_noisy/mix_0001635.wav"
}