{
"si_sdr": 6.6370627430873865,
"si_sdr_imp": 10.065385692233495,
"sdr": 7.493032439342884,
"sdr_imp": 10.683542112919541,
"sir": 16.609673088623627,
"sir_imp": 16.437651011955516,
"sar": 8.607165514782478,
"sar_imp": 5.129583872105398,
"stoi": 0.8140479069033609,
"stoi_imp": 0.12731209354714165,
"pesq": 1.8107075601358904,
"pesq_imp": 0.36595833975526
}