{
"input_si_sdr": -1.6816767454147339,
"input_sdr": -1.2274106169527443,
"input_sir": 0.561976911139578,
"input_sar": 7.19817935452005,
"input_stoi": 0.6440857778661717,
"input_pesq": 1.3803730607032776,
"si_sdr": 5.96800684928894,
"sdr": 7.067580046516397,
"sir": 12.692641361785192,
"sar": 9.045489830536203,
"stoi": 0.7837898767291954,
"pesq": 1.5876612663269043,
"mix_path": "/dtu-compute/LibriMix/rmth/Fagprojekt194240/our_output_test/SUM_2_mix/wav8000/mix_noisy/mix_0002610.wav"
}