{
"input_si_sdr": -6.200656533241272,
"input_sdr": -5.677743625398643,
"input_sir": 0.10763551120933101,
"input_sar": 0.7843315183071544,
"input_stoi": 0.6853676481090409,
"input_pesq": 1.4808566570281982,
"si_sdr": 7.8675901889801025,
"sdr": 8.671410460021495,
"sir": 20.18328569396871,
"sar": 9.097406802046532,
"stoi": 0.847645899982149,
"pesq": 1.8134506940841675,
"mix_path": "/dtu-compute/LibriMix/rmth/Fagprojekt194240/our_output_test/sparse_2_0.4/wav8000/mix_noisy/mix_0002981.wav"
}