{
"input_si_sdr": -5.94392991065979,
"input_sdr": -5.4814574550374875,
"input_sir": 0.2890609404801521,
"input_sar": -1.1383502414451214,
"input_stoi": 0.6589333654214184,
"input_pesq": 1.3962968587875366,
"si_sdr": 8.40586543083191,
"sdr": 9.292733684681357,
"sir": 16.135723660235918,
"sar": 10.484330114723438,
"stoi": 0.8700033748938827,
"pesq": 1.9359591007232666,
"mix_path": "/dtu-compute/LibriMix/rmth/Fagprojekt194240/our_output_test/sparse_2_0.6/wav8000/mix_noisy/mix_0001825.wav"
}