{
"input_si_sdr": -5.034636378288269,
"input_sdr": -4.599792028857479,
"input_sir": 0.238434724491976,
"input_sar": 0.2798183862529063,
"input_stoi": 0.6655051499143235,
"input_pesq": 1.410736083984375,
"si_sdr": 9.252064228057861,
"sdr": 10.089216080735461,
"sir": 22.182930716872594,
"sar": 10.409486615495954,
"stoi": 0.8755280983500702,
"pesq": 2.125420331954956,
"mix_path": "/dtu-compute/LibriMix/rmth/Fagprojekt194240/our_output_test/sparse_2_0.8/wav8000/mix_noisy/mix_0000657.wav"
}