{
"input_si_sdr": -1.9518815279006958,
"input_sdr": -1.9239479115675873,
"input_sir": 2.006123369646673e-07,
"input_sar": 6.087970745661226,
"input_stoi": 0.9047122273405006,
"input_pesq": 1.9474917650222778,
"si_sdr": 12.309559345245361,
"sdr": 12.943991041504397,
"sir": 47.09936562284003,
"sar": 12.953956453136858,
"stoi": 0.9494072342847599,
"pesq": 2.531792998313904,
"mix_path": "/dtu-compute/LibriMix/rmth/Fagprojekt194240/our_output_test/sparse_2_0/wav8000/mix_noisy/mix_0001486.wav"
}