{
"input_si_sdr": -5.3515784740448,
"input_sdr": -5.181856777587694,
"input_sir": 0.056049140680291654,
"input_sar": -0.5410211776490235,
"input_stoi": 0.7461340976666404,
"input_pesq": 1.3518617749214172,
"si_sdr": 6.486782789230347,
"sdr": 7.188579338860482,
"sir": 21.71502135804854,
"sar": 7.390301222324997,
"stoi": 0.8523483269959287,
"pesq": 1.5410865545272827,
"mix_path": "/dtu-compute/LibriMix/rmth/Fagprojekt194240/our_output_test/sparse_2_0.4/wav8000/mix_noisy/mix_0002529.wav"
}