Making the required json file for no-overlap mixtures
Missing Alignment file for : /dtu-compute/LibriMix/rmth/LibriSpeech/train-clean-100/7067/76048/7067-76048-0021.flac
Discarded 82 over 28538 files because of low SNR
