Traceback (most recent call last):
  File "sample_mixtures.py", line 18, in <module>
    os.mkdir(sum_path)
FileExistsError: [Errno 17] File exists: '/dtu-compute/LibriMix/rmth/Fagprojekt194240/our_output_train/SUM_2_mix'
