Traceback (most recent call last):
  File "sample_mixtures.py", line 18, in <module>
    os.mkdir(sum_path)
FileExistsError: [Errno 17] File exists: '/dtu-compute/LibriMix/rmth/Fagprojekt194240/our_output_train/SUM_2_mix'

------------------------------------------------------------
Sender: LSF System <lsfadmin@hpc.dtu.dk>
Subject: Job 9672763: <NONAME> in cluster <dcc> Exited

Job <NONAME> was submitted from host <n-62-30-7> by user <s194240> in cluster <dcc> at Thu May 20 16:19:34 2021
Job was executed on host(s) <n-62-31-23>, in queue <hpc>, as user <s194240> in cluster <dcc> at Thu May 20 16:19:35 2021
</zhome/b9/2/147126> was used as the home directory.
</dtu-compute/LibriMix/rmth/Fagprojekt194240/Generate_SUM/generate_train/scripts> was used as the working directory.
Started at Thu May 20 16:19:35 2021
Terminated at Thu May 20 16:19:37 2021
Results reported at Thu May 20 16:19:37 2021

Your job looked like:

------------------------------------------------------------
# LSBATCH: User input
run_sample.sh
------------------------------------------------------------

Exited with exit code 1.

Resource usage summary:

    CPU time :                                   0.36 sec.
    Max Memory :                                 -
    Average Memory :                             -
    Total Requested Memory :                     1024.00 MB
    Delta Memory :                               -
    Max Swap :                                   -
    Max Processes :                              -
    Max Threads :                                -
    Run time :                                   58 sec.
    Turnaround time :                            3 sec.

The output (if any) is above this job summary.

