{
"input_si_sdr": -1.3501669764518738,
"input_sdr": -1.2201760925842724,
"input_sir": 0.10626563682656442,
"input_sar": 7.845455468069353,
"input_stoi": 0.7609466598077392,
"input_pesq": 1.4538276195526123,
"si_sdr": 11.802234649658203,
"sdr": 13.028652271426088,
"sir": 27.097408636018564,
"sar": 13.219763352036113,
"stoi": 0.8974689346391826,
"pesq": 2.278723955154419,
"mix_path": "/dtu-compute/LibriMix/rmth/Fagprojekt194240/our_output_test/sparse_2_0.8/wav8000/mix_noisy/mix_0000451.wav"
}