{
"input_si_sdr": -4.86852952837944,
"input_sdr": -4.293582193099548,
"input_sir": 0.3982068938272745,
"input_sar": 1.7422352774671264,
"input_stoi": 0.5989450729701552,
"input_pesq": 1.2930206060409546,
"si_sdr": 6.02518093585968,
"sdr": 6.765171218051293,
"sir": 19.66073956800167,
"sar": 7.066343600001593,
"stoi": 0.7599005508903418,
"pesq": 1.708612859249115,
"mix_path": "/dtu-compute/LibriMix/rmth/Fagprojekt194240/our_output_test/sparse_2_1/wav8000/mix_noisy/mix_0000439.wav"
}