Collecting test_annotations.csv from: ../test_annotations.csv
../data/our_output_test/sparse_2_mix
Here is the length of the test-set:  2994
Overall metrics :
{'pesq': 1.997159089278442,
 'pesq_imp': 0.4053847818431969,
 'sar': 9.739247452715059,
 'sar_imp': 7.062648900477912,
 'sdr': 8.826906649364377,
 'sdr_imp': 12.50238082628889,
 'si_sdr': 7.956047846018365,
 'si_sdr_imp': 11.795720891787113,
 'sir': 25.345773204209017,
 'sir_imp': 25.260591550259054,
 'stoi': 0.8454167112259717,
 'stoi_imp': 0.09440094696004639}

Don't forget to share your pretrained models at https://zenodo.org/communities/asteroid-models/! =)
You can directly use our CLI for that, run this: 
`asteroid-upload exp/train_convtasnet_mix/publish_dir --uploader "Your name here"`

