{
"input_si_sdr": -5.405526340007782,
"input_sdr": -4.944122627059479,
"input_sir": 0.38479946526924413,
"input_sar": 1.2691320310501986,
"input_stoi": 0.6738991020073046,
"input_pesq": 1.3737760186195374,
"si_sdr": 0.6974635124206543,
"sdr": 1.4168877113546015,
"sir": 6.595748893597615,
"sar": 5.879930597865652,
"stoi": 0.7192784263718717,
"pesq": 1.6046295166015625,
"mix_path": "/dtu-compute/LibriMix/rmth/Fagprojekt194240/our_output_test/sparse_2_0.8/wav8000/mix_noisy/mix_0002124.wav"
}